DLD Lab/Experiment#03/Code/WaveformGenerator/Quartus/simulation/qsim/WaveformGenerator.msim.vcd
$comment
	File created using the following command:
		vcd file WaveformGenerator.msim.vcd -direction
$end
$date
	Mon Aug 24 13:57:24 2020
$end
$version
	ModelSim Version 10.1d
$end
$timescale
	1ps
$end
$scope module WaveformGenerator_vlg_vec_tst $end
$var reg 1 ! clk $end
$var reg 3 " func [2:0] $end
$var reg 1 # rst $end
$var reg 1 $ select $end
$var wire 1 % result [7] $end
$var wire 1 & result [6] $end
$var wire 1 ' result [5] $end
$var wire 1 ( result [4] $end
$var wire 1 ) result [3] $end
$var wire 1 * result [2] $end
$var wire 1 + result [1] $end
$var wire 1 , result [0] $end
$var wire 1 - sampler $end
$scope module i1 $end
$var wire 1 . gnd $end
$var wire 1 / vcc $end
$var wire 1 0 unknown $end
$var tri1 1 1 devclrn $end
$var tri1 1 2 devpor $end
$var tri1 1 3 devoe $end
$var wire 1 4 inst|sw|sine[0]~0_combout $end
$var wire 1 5 inst|sw|sine[1]~2_combout $end
$var wire 1 6 inst|sw|sine[3]~6_combout $end
$var wire 1 7 inst|sw|sine[4]~8_combout $end
$var wire 1 8 inst|sw|sine[5]~10_combout $end
$var wire 1 9 inst|sw|sine[6]~12_combout $end
$var wire 1 : inst|fw|pre_cosine[2]~20_combout $end
$var wire 1 ; inst|fw|pre_cosine[3]~22_combout $end
$var wire 1 < inst|fw|pre_cosine[5]~26_combout $end
$var wire 1 = inst|fw|pre_cosine[8]~32_combout $end
$var wire 1 > inst|counter[4]~16_combout $end
$var wire 1 ? inst|rw|rhomboid_out[6]~21_combout $end
$var wire 1 @ inst|wave_out[2]~0_combout $end
$var wire 1 A inst|sw4|Add3~2_combout $end
$var wire 1 B inst|sw4|Add3~6_combout $end
$var wire 1 C inst|Mux1~0_combout $end
$var wire 1 D inst|tw|triangle_out~0_combout $end
$var wire 1 E inst|tw|triangle_out~1_combout $end
$var wire 1 F inst|rw|rhomboid_out~25_combout $end
$var wire 1 G inst|tw|triangle_out~3_combout $end
$var wire 1 H inst|tw|triangle_out~6_combout $end
$var wire 1 I select~combout $end
$var wire 1 J inst|counter[0]~8_combout $end
$var wire 1 K rst~combout $end
$var wire 1 L inst|counter[1]~10_combout $end
$var wire 1 M inst|Equal0~1_combout $end
$var wire 1 N inst|counter[6]~20_combout $end
$var wire 1 O inst|Equal0~0_combout $end
$var wire 1 P inst|always0~0_combout $end
$var wire 1 Q inst|counter[0]~9 $end
$var wire 1 R inst|counter[1]~11 $end
$var wire 1 S inst|counter[2]~12_combout $end
$var wire 1 T inst|counter[2]~13 $end
$var wire 1 U inst|counter[3]~15 $end
$var wire 1 V inst|counter[4]~17 $end
$var wire 1 W inst|counter[5]~18_combout $end
$var wire 1 X inst|counter[5]~19 $end
$var wire 1 Y inst|counter[6]~21 $end
$var wire 1 Z inst|counter[7]~22_combout $end
$var wire 1 [ inst|sw2|always0~0_combout $end
$var wire 1 \ rst~clkctrl_outclk $end
$var wire 1 ] inst|sw|sine[13]~26_combout $end
$var wire 1 ^ inst|sw|sine[12]~24_combout $end
$var wire 1 _ inst|sw|sine[8]~16_combout $end
$var wire 1 ` inst|fw|pre_cosine[0]~16_combout $end
$var wire 1 a inst|fw|pre_cosine[0]~17 $end
$var wire 1 b inst|fw|pre_cosine[1]~18_combout $end
$var wire 1 c inst|fw|pre_cosine[1]~19 $end
$var wire 1 d inst|fw|pre_cosine[2]~21 $end
$var wire 1 e inst|fw|pre_cosine[3]~23 $end
$var wire 1 f inst|fw|pre_cosine[4]~24_combout $end
$var wire 1 g inst|fw|pre_cosine[4]~25 $end
$var wire 1 h inst|fw|pre_cosine[5]~27 $end
$var wire 1 i inst|fw|pre_cosine[6]~29 $end
$var wire 1 j inst|fw|pre_cosine[7]~30_combout $end
$var wire 1 k inst|fw|pre_cosine[6]~28_combout $end
$var wire 1 l inst|sw|sine[0]~1 $end
$var wire 1 m inst|sw|sine[1]~3 $end
$var wire 1 n inst|sw|sine[2]~4_combout $end
$var wire 1 o inst|sw|sine[2]~5 $end
$var wire 1 p inst|sw|sine[3]~7 $end
$var wire 1 q inst|sw|sine[4]~9 $end
$var wire 1 r inst|sw|sine[5]~11 $end
$var wire 1 s inst|sw|sine[6]~13 $end
$var wire 1 t inst|sw|sine[7]~14_combout $end
$var wire 1 u inst|sw|sine[7]~15 $end
$var wire 1 v inst|sw|sine[8]~17 $end
$var wire 1 w inst|sw|sine[9]~18_combout $end
$var wire 1 x inst|sw|sine[9]~19 $end
$var wire 1 y inst|sw|sine[10]~21 $end
$var wire 1 z inst|sw|sine[11]~22_combout $end
$var wire 1 { inst|sw|sine[11]~23 $end
$var wire 1 | inst|sw|sine[12]~25 $end
$var wire 1 } inst|sw|sine[13]~27 $end
$var wire 1 ~ inst|sw|sine[14]~28_combout $end
$var wire 1 !! inst|fw|pre_cosine[7]~31 $end
$var wire 1 "! inst|fw|pre_cosine[8]~33 $end
$var wire 1 #! inst|fw|pre_cosine[9]~34_combout $end
$var wire 1 $! inst|fw|pre_cosine[9]~35 $end
$var wire 1 %! inst|fw|pre_cosine[10]~36_combout $end
$var wire 1 &! inst|fw|pre_cosine[10]~37 $end
$var wire 1 '! inst|fw|pre_cosine[11]~38_combout $end
$var wire 1 (! inst|fw|pre_cosine[11]~39 $end
$var wire 1 )! inst|fw|pre_cosine[12]~40_combout $end
$var wire 1 *! inst|fw|pre_cosine[12]~41 $end
$var wire 1 +! inst|fw|pre_cosine[13]~42_combout $end
$var wire 1 ,! inst|fw|pre_cosine[13]~43 $end
$var wire 1 -! inst|fw|pre_cosine[14]~44_combout $end
$var wire 1 .! inst|fw|pre_cosine[14]~45 $end
$var wire 1 /! inst|fw|pre_cosine[15]~46_combout $end
$var wire 1 0! inst|sw|sine[14]~29 $end
$var wire 1 1! inst|sw|sine[15]~30_combout $end
$var wire 1 2! inst|sw|sine[10]~20_combout $end
$var wire 1 3! inst|sw4|Add2~1 $end
$var wire 1 4! inst|sw4|Add2~3 $end
$var wire 1 5! inst|sw4|Add2~5 $end
$var wire 1 6! inst|sw4|Add2~7 $end
$var wire 1 7! inst|sw4|Add2~9 $end
$var wire 1 8! inst|sw4|Add2~11 $end
$var wire 1 9! inst|sw4|Add2~13 $end
$var wire 1 :! inst|sw4|Add2~14_combout $end
$var wire 1 ;! inst|wave_out[2]~1_combout $end
$var wire 1 <! inst|wave_out[2]~2_combout $end
$var wire 1 =! inst|wave_out[2]~5_combout $end
$var wire 1 >! inst|wave_out[2]~4_combout $end
$var wire 1 ?! inst|sw4|toggle~0_combout $end
$var wire 1 @! inst|sw4|toggle~regout $end
$var wire 1 A! inst|rw|rhomboid_out[2]~8_combout $end
$var wire 1 B! inst|rw|rhomboid_out[0]~10 $end
$var wire 1 C! inst|rw|rhomboid_out[1]~12 $end
$var wire 1 D! inst|rw|rhomboid_out[2]~14 $end
$var wire 1 E! inst|rw|rhomboid_out[3]~16 $end
$var wire 1 F! inst|rw|rhomboid_out[4]~18 $end
$var wire 1 G! inst|rw|rhomboid_out[5]~20 $end
$var wire 1 H! inst|rw|rhomboid_out[6]~22 $end
$var wire 1 I! inst|rw|rhomboid_out[7]~23_combout $end
$var wire 1 J! ~GND~combout $end
$var wire 1 K! inst|Mux0~0_combout $end
$var wire 1 L! inst|sw4|Add2~12_combout $end
$var wire 1 M! inst|sw4|Add2~10_combout $end
$var wire 1 N! inst|sw4|Add2~6_combout $end
$var wire 1 O! inst|sw4|Add2~2_combout $end
$var wire 1 P! inst|fw|Add3~1_cout $end
$var wire 1 Q! inst|fw|Add3~3 $end
$var wire 1 R! inst|fw|Add3~5 $end
$var wire 1 S! inst|fw|Add3~7 $end
$var wire 1 T! inst|fw|Add3~9 $end
$var wire 1 U! inst|fw|Add3~11 $end
$var wire 1 V! inst|fw|Add3~13 $end
$var wire 1 W! inst|fw|Add3~14_combout $end
$var wire 1 X! inst|Mux0~1_combout $end
$var wire 1 Y! inst|sw4|Add3~0_combout $end
$var wire 1 Z! inst|sw4|Add3~1_combout $end
$var wire 1 [! inst|sw4|Add2~8_combout $end
$var wire 1 \! inst|sw4|Add3~3_combout $end
$var wire 1 ]! inst|sw4|Add3~4_combout $end
$var wire 1 ^! inst|sw4|Add2~4_combout $end
$var wire 1 _! inst|sw4|Add3~5_combout $end
$var wire 1 `! inst|sw4|Add2~0_combout $end
$var wire 1 a! inst|sw4|Add3~7_combout $end
$var wire 1 b! inst|sw4|Add3~9 $end
$var wire 1 c! inst|sw4|Add3~11 $end
$var wire 1 d! inst|sw4|Add3~13 $end
$var wire 1 e! inst|sw4|Add3~15 $end
$var wire 1 f! inst|sw4|Add3~17 $end
$var wire 1 g! inst|sw4|Add3~19 $end
$var wire 1 h! inst|sw4|Add3~21 $end
$var wire 1 i! inst|sw4|Add3~22_combout $end
$var wire 1 j! inst|Mux0~2_combout $end
$var wire 1 k! inst|Mux0~3_combout $end
$var wire 1 l! clk~combout $end
$var wire 1 m! clk~clkctrl_outclk $end
$var wire 1 n! inst1|counter_out[0]~10_combout $end
$var wire 1 o! inst1|counter_out[0]~11 $end
$var wire 1 p! inst1|counter_out[1]~13 $end
$var wire 1 q! inst1|counter_out[2]~14_combout $end
$var wire 1 r! inst1|counter_out[2]~15 $end
$var wire 1 s! inst1|counter_out[3]~17 $end
$var wire 1 t! inst1|counter_out[4]~19 $end
$var wire 1 u! inst1|counter_out[5]~20_combout $end
$var wire 1 v! inst1|counter_out[5]~21 $end
$var wire 1 w! inst1|counter_out[6]~22_combout $end
$var wire 1 x! inst1|counter_out[6]~23 $end
$var wire 1 y! inst1|counter_out[7]~24_combout $end
$var wire 1 z! inst1|Equal0~1_combout $end
$var wire 1 {! inst1|counter_out[7]~25 $end
$var wire 1 |! inst1|counter_out[8]~26_combout $end
$var wire 1 }! inst1|counter_out[8]~27 $end
$var wire 1 ~! inst1|counter_out[9]~28_combout $end
$var wire 1 !" inst1|Equal0~2_combout $end
$var wire 1 "" inst1|counter_out[3]~16_combout $end
$var wire 1 #" inst1|Equal0~0_combout $end
$var wire 1 $" inst1|always0~0_combout $end
$var wire 1 %" inst1|counter_out[1]~12_combout $end
$var wire 1 &" inst1|counter_out[4]~18_combout $end
$var wire 1 '" inst3|$00000|auto_generated|result_node[7]~0_combout $end
$var wire 1 (" inst|fw|Add3~12_combout $end
$var wire 1 )" inst|Mux1~1_combout $end
$var wire 1 *" inst|sw4|Add3~20_combout $end
$var wire 1 +" inst|Mux1~2_combout $end
$var wire 1 ," inst|Mux1~3_combout $end
$var wire 1 -" inst3|$00000|auto_generated|result_node[6]~1_combout $end
$var wire 1 ." inst|wave_out[2]~3_combout $end
$var wire 1 /" inst|sw4|Add3~18_combout $end
$var wire 1 0" inst|rw|rhomboid_out[5]~19_combout $end
$var wire 1 1" inst|rw|rhomboid_out~26_combout $end
$var wire 1 2" inst|Mux2~0_combout $end
$var wire 1 3" inst|tw|triangle_out~2_combout $end
$var wire 1 4" inst|fw|Add3~10_combout $end
$var wire 1 5" inst|Mux2~1_combout $end
$var wire 1 6" inst|Mux2~2_combout $end
$var wire 1 7" inst|Mux2~3_combout $end
$var wire 1 8" inst3|$00000|auto_generated|result_node[5]~2_combout $end
$var wire 1 9" inst|rw|rhomboid_out[4]~17_combout $end
$var wire 1 :" inst|rw|rhomboid_out~27_combout $end
$var wire 1 ;" inst|Mux3~0_combout $end
$var wire 1 <" inst|fw|Add3~8_combout $end
$var wire 1 =" inst|Mux3~1_combout $end
$var wire 1 >" inst|sw4|Add3~16_combout $end
$var wire 1 ?" inst|Mux3~2_combout $end
$var wire 1 @" inst|Mux3~3_combout $end
$var wire 1 A" inst3|$00000|auto_generated|result_node[4]~3_combout $end
$var wire 1 B" inst|counter[3]~14_combout $end
$var wire 1 C" inst|tw|triangle_out~4_combout $end
$var wire 1 D" inst|rw|rhomboid_out[3]~15_combout $end
$var wire 1 E" inst|rw|rhomboid_out~28_combout $end
$var wire 1 F" inst|Mux4~0_combout $end
$var wire 1 G" inst|fw|Add3~6_combout $end
$var wire 1 H" inst|Mux4~1_combout $end
$var wire 1 I" inst|sw4|Add3~14_combout $end
$var wire 1 J" inst|Mux4~2_combout $end
$var wire 1 K" inst|Mux4~3_combout $end
$var wire 1 L" inst3|$00000|auto_generated|result_node[3]~4_combout $end
$var wire 1 M" inst|fw|Add3~4_combout $end
$var wire 1 N" inst|rw|rhomboid_out[2]~13_combout $end
$var wire 1 O" inst|rw|rhomboid_out~29_combout $end
$var wire 1 P" inst|tw|triangle_out~5_combout $end
$var wire 1 Q" inst|Mux5~0_combout $end
$var wire 1 R" inst|Mux5~1_combout $end
$var wire 1 S" inst|sw4|Add3~12_combout $end
$var wire 1 T" inst|Mux5~2_combout $end
$var wire 1 U" inst|Mux5~3_combout $end
$var wire 1 V" inst3|$00000|auto_generated|result_node[2]~5_combout $end
$var wire 1 W" inst|rw|rhomboid_out[1]~11_combout $end
$var wire 1 X" inst|rw|rhomboid_out~30_combout $end
$var wire 1 Y" inst|Mux6~0_combout $end
$var wire 1 Z" inst|fw|Add3~2_combout $end
$var wire 1 [" inst|Mux6~1_combout $end
$var wire 1 \" inst|sw4|Add3~10_combout $end
$var wire 1 ]" inst|Mux6~2_combout $end
$var wire 1 ^" inst|Mux6~3_combout $end
$var wire 1 _" inst3|$00000|auto_generated|result_node[1]~6_combout $end
$var wire 1 `" inst|rw|rhomboid_out[0]~9_combout $end
$var wire 1 a" inst|rw|rhomboid_out~31_combout $end
$var wire 1 b" inst|tw|triangle_out~7_combout $end
$var wire 1 c" inst|Mux7~0_combout $end
$var wire 1 d" inst|Mux7~1_combout $end
$var wire 1 e" inst|sw4|Add3~8_combout $end
$var wire 1 f" inst|Mux7~2_combout $end
$var wire 1 g" inst|Mux7~3_combout $end
$var wire 1 h" inst3|$00000|auto_generated|result_node[0]~7_combout $end
$var wire 1 i" inst|wave_out [7] $end
$var wire 1 j" inst|wave_out [6] $end
$var wire 1 k" inst|wave_out [5] $end
$var wire 1 l" inst|wave_out [4] $end
$var wire 1 m" inst|wave_out [3] $end
$var wire 1 n" inst|wave_out [2] $end
$var wire 1 o" inst|wave_out [1] $end
$var wire 1 p" inst|wave_out [0] $end
$var wire 1 q" inst|counter [7] $end
$var wire 1 r" inst|counter [6] $end
$var wire 1 s" inst|counter [5] $end
$var wire 1 t" inst|counter [4] $end
$var wire 1 u" inst|counter [3] $end
$var wire 1 v" inst|counter [2] $end
$var wire 1 w" inst|counter [1] $end
$var wire 1 x" inst|counter [0] $end
$var wire 1 y" inst|rw|rhomboid_out [7] $end
$var wire 1 z" inst|rw|rhomboid_out [6] $end
$var wire 1 {" inst|rw|rhomboid_out [5] $end
$var wire 1 |" inst|rw|rhomboid_out [4] $end
$var wire 1 }" inst|rw|rhomboid_out [3] $end
$var wire 1 ~" inst|rw|rhomboid_out [2] $end
$var wire 1 !# inst|rw|rhomboid_out [1] $end
$var wire 1 "# inst|rw|rhomboid_out [0] $end
$var wire 1 ## inst|sw2|square_out [7] $end
$var wire 1 $# inst|sw2|square_out [6] $end
$var wire 1 %# inst|sw2|square_out [5] $end
$var wire 1 &# inst|sw2|square_out [4] $end
$var wire 1 '# inst|sw2|square_out [3] $end
$var wire 1 (# inst|sw2|square_out [2] $end
$var wire 1 )# inst|sw2|square_out [1] $end
$var wire 1 *# inst|sw2|square_out [0] $end
$var wire 1 +# inst|tw|triangle_out [7] $end
$var wire 1 ,# inst|tw|triangle_out [6] $end
$var wire 1 -# inst|tw|triangle_out [5] $end
$var wire 1 .# inst|tw|triangle_out [4] $end
$var wire 1 /# inst|tw|triangle_out [3] $end
$var wire 1 0# inst|tw|triangle_out [2] $end
$var wire 1 1# inst|tw|triangle_out [1] $end
$var wire 1 2# inst|tw|triangle_out [0] $end
$var wire 1 3# inst|fw|pre_sine [15] $end
$var wire 1 4# inst|fw|pre_sine [14] $end
$var wire 1 5# inst|fw|pre_sine [13] $end
$var wire 1 6# inst|fw|pre_sine [12] $end
$var wire 1 7# inst|fw|pre_sine [11] $end
$var wire 1 8# inst|fw|pre_sine [10] $end
$var wire 1 9# inst|fw|pre_sine [9] $end
$var wire 1 :# inst|fw|pre_sine [8] $end
$var wire 1 ;# inst|fw|pre_sine [7] $end
$var wire 1 <# inst|fw|pre_sine [6] $end
$var wire 1 =# inst|fw|pre_sine [5] $end
$var wire 1 ># inst|fw|pre_sine [4] $end
$var wire 1 ?# inst|fw|pre_sine [3] $end
$var wire 1 @# inst|fw|pre_sine [2] $end
$var wire 1 A# inst|fw|pre_sine [1] $end
$var wire 1 B# inst|fw|pre_sine [0] $end
$var wire 1 C# inst|fw|pre_cosine [15] $end
$var wire 1 D# inst|fw|pre_cosine [14] $end
$var wire 1 E# inst|fw|pre_cosine [13] $end
$var wire 1 F# inst|fw|pre_cosine [12] $end
$var wire 1 G# inst|fw|pre_cosine [11] $end
$var wire 1 H# inst|fw|pre_cosine [10] $end
$var wire 1 I# inst|fw|pre_cosine [9] $end
$var wire 1 J# inst|fw|pre_cosine [8] $end
$var wire 1 K# inst|fw|pre_cosine [7] $end
$var wire 1 L# inst|fw|pre_cosine [6] $end
$var wire 1 M# inst|fw|pre_cosine [5] $end
$var wire 1 N# inst|fw|pre_cosine [4] $end
$var wire 1 O# inst|fw|pre_cosine [3] $end
$var wire 1 P# inst|fw|pre_cosine [2] $end
$var wire 1 Q# inst|fw|pre_cosine [1] $end
$var wire 1 R# inst|fw|pre_cosine [0] $end
$var wire 1 S# inst2|altsyncram_component|auto_generated|q_a [7] $end
$var wire 1 T# inst2|altsyncram_component|auto_generated|q_a [6] $end
$var wire 1 U# inst2|altsyncram_component|auto_generated|q_a [5] $end
$var wire 1 V# inst2|altsyncram_component|auto_generated|q_a [4] $end
$var wire 1 W# inst2|altsyncram_component|auto_generated|q_a [3] $end
$var wire 1 X# inst2|altsyncram_component|auto_generated|q_a [2] $end
$var wire 1 Y# inst2|altsyncram_component|auto_generated|q_a [1] $end
$var wire 1 Z# inst2|altsyncram_component|auto_generated|q_a [0] $end
$var wire 1 [# inst1|counter_out [9] $end
$var wire 1 \# inst1|counter_out [8] $end
$var wire 1 ]# inst1|counter_out [7] $end
$var wire 1 ^# inst1|counter_out [6] $end
$var wire 1 _# inst1|counter_out [5] $end
$var wire 1 `# inst1|counter_out [4] $end
$var wire 1 a# inst1|counter_out [3] $end
$var wire 1 b# inst1|counter_out [2] $end
$var wire 1 c# inst1|counter_out [1] $end
$var wire 1 d# inst1|counter_out [0] $end
$var wire 1 e# func~combout [2] $end
$var wire 1 f# func~combout [1] $end
$var wire 1 g# func~combout [0] $end
$var wire 1 h# inst2|altsyncram_component|auto_generated|ram_block1a4_PORTADATAOUT_bus [3] $end
$var wire 1 i# inst2|altsyncram_component|auto_generated|ram_block1a4_PORTADATAOUT_bus [2] $end
$var wire 1 j# inst2|altsyncram_component|auto_generated|ram_block1a4_PORTADATAOUT_bus [1] $end
$var wire 1 k# inst2|altsyncram_component|auto_generated|ram_block1a4_PORTADATAOUT_bus [0] $end
$var wire 1 l# inst2|altsyncram_component|auto_generated|ram_block1a0_PORTADATAOUT_bus [3] $end
$var wire 1 m# inst2|altsyncram_component|auto_generated|ram_block1a0_PORTADATAOUT_bus [2] $end
$var wire 1 n# inst2|altsyncram_component|auto_generated|ram_block1a0_PORTADATAOUT_bus [1] $end
$var wire 1 o# inst2|altsyncram_component|auto_generated|ram_block1a0_PORTADATAOUT_bus [0] $end
$upscope $end
$upscope $end
$enddefinitions $end
#0
$dumpvars
0!
b0 "
0#
1$
0,
0+
0*
0)
0(
0'
0&
0%
x-
0.
1/
x0
11
12
13
04
05
06
17
08
19
0:
1;
0<
0=
0>
0?
0@
0A
0B
0C
0D
0E
0F
0G
0H
1I
1J
0K
0L
0M
0N
0O
0P
0Q
1R
0S
0T
1U
0V
0W
1X
0Y
0Z
1[
0\
0]
0^
1_
1`
0a
0b
1c
0d
1e
1f
1g
0h
1i
0j
0k
0l
1m
1n
0o
1p
0q
1r
0s
1t
1u
0v
0w
1x
0y
0z
1{
0|
1}
0~
0!!
1"!
0#!
0$!
0%!
1&!
0'!
0(!
0)!
1*!
0+!
0,!
0-!
1.!
0/!
00!
01!
02!
13!
04!
15!
06!
17!
08!
19!
0:!
0;!
0<!
1=!
0>!
1?!
0@!
0A!
1B!
0C!
1D!
0E!
1F!
0G!
1H!
0I!
0J!
0K!
0L!
0M!
0N!
0O!
1P!
0Q!
1R!
0S!
1T!
0U!
1V!
1W!
0X!
0Y!
0Z!
0[!
0\!
0]!
0^!
0_!
0`!
1a!
1b!
1c!
0d!
1e!
0f!
1g!
0h!
0i!
0j!
0k!
0l!
0m!
1n!
0o!
1p!
0q!
0r!
1s!
0t!
0u!
1v!
0w!
0x!
0y!
0z!
1{!
0|!
0}!
0~!
0!"
0""
0#"
0$"
0%"
0&"
0'"
0("
0)"
0*"
0+"
0,"
0-"
0."
0/"
00"
01"
02"
03"
04"
05"
06"
07"
08"
09"
0:"
0;"
0<"
0="
0>"
0?"
0@"
0A"
0B"
0C"
0D"
0E"
0F"
0G"
0H"
0I"
0J"
0K"
0L"
0M"
0N"
0O"
0P"
0Q"
0R"
0S"
0T"
0U"
0V"
0W"
0X"
0Y"
0Z"
0["
1\"
0]"
0^"
0_"
0`"
0a"
0b"
0c"
0d"
0e"
0f"
0g"
0h"
0p"
0o"
0n"
0m"
0l"
0k"
0j"
0i"
0x"
0w"
0v"
0u"
0t"
0s"
0r"
0q"
0"#
0!#
0~"
0}"
0|"
0{"
0z"
0y"
0*#
z)#
z(#
z'#
z&#
z%#
z$#
z##
02#
01#
00#
0/#
0.#
0-#
0,#
0+#
0B#
0A#
0@#
0?#
0>#
0=#
0<#
0;#
0:#
09#
08#
07#
06#
05#
04#
03#
0R#
0Q#
0P#
0O#
0N#
0M#
0L#
0K#
0J#
0I#
0H#
0G#
0F#
0E#
0D#
0C#
0Z#
0Y#
0X#
0W#
0V#
0U#
0T#
0S#
0d#
0c#
0b#
0a#
0`#
0_#
0^#
0]#
0\#
0[#
0g#
0f#
0e#
0k#
0j#
0i#
0h#
0o#
0n#
0m#
0l#
$end
#5000
1!
1l!
1m!
0-
1d#
1@!
1;#
1@#
1N#
1R#
1*#
1x"
1>#
1<#
1:#
1O#
1o!
0n!
1X"
1O"
1E"
1:"
11"
0?!
1F
0u
0t
1o
0n
0g
0f
1a
0`
1b"
0B!
1`"
1Q
0J
1q
07
1s
09
1v
0_
0e
0;
1%"
1_
0c
16
1<
1C!
1W"
1L
18
1t
1`
1w
0a!
03!
1`!
1:
1g
1f
1a!
13!
0`!
0D!
1N"
1c
1b
1B
1e
1;
0b!
1e"
0P!
0<
1b!
0e"
1O!
1P!
1E!
1D"
0:
0g
0f
1Q!
1Z"
0c!
0\"
0F!
19"
1<
0R!
1M"
1S"
1G!
10"
1S!
1G"
0H!
1?
0T!
1<"
1I!
1U!
14"
0V!
1("
0W!
#5001
1o#
1n#
1m#
1l#
1k#
1j#
1i#
1h#
1Z#
1Y#
1X#
1W#
1V#
1U#
1T#
1S#
1h"
1_"
1V"
1L"
1A"
18"
1-"
1'"
1,
1+
1*
1)
1(
1'
1&
1%
#8000
1#
1K
1\
1-
1$"
0[
1P
0@!
0;#
0@#
0N#
0R#
0>#
0<#
0:#
0O#
1a"
0X"
0O"
0E"
0:"
01"
1?!
0F
0t
0o
1n
1g
1f
0`
0q
17
0s
19
0_
0;
0c
0b
06
0<
08
1u
1t
0a
1`
0a!
03!
1`!
1:
1d
0:
0v
1_
1c
0b!
1e"
0O!
0P!
1;
0w
1a!
13!
0`!
0d
1c!
1\"
0B
1b!
0e"
1P!
0S"
0Q!
0Z"
1R!
0M"
0S!
0G"
1T!
0<"
0U!
04"
1V!
0("
1W!
#10000
0!
0l!
0m!
0-
#15000
1!
1l!
1m!
1-
1"#
0d#
0*#
0x"
1c"
0o!
1n!
0b"
0a"
1B!
0`"
0Q
1J
1d"
0%"
0C!
0W"
0L
1g"
1D!
0N"
0E!
0D"
1F!
09"
0G!
00"
1H!
0?
0I!
#15001
0o#
0n#
0m#
0l#
0k#
0j#
0i#
0Z#
0Y#
0X#
0W#
0V#
0U#
0T#
0h"
0_"
0V"
0L"
0A"
08"
0-"
0,
0+
0*
0)
0(
0'
0&
#20000
0!
0l!
0m!
0-
#25000
1!
1l!
1m!
1-
1p"
0"#
0c"
0d"
0g"
#25001
1o#
1n#
1m#
1l#
1k#
1j#
1i#
1Z#
1Y#
1X#
1W#
1V#
1U#
1T#
1h"
1_"
1V"
1L"
1A"
18"
1-"
1,
1+
1*
1)
1(
1'
1&
#30000
0!
0l!
0m!
0-
#35000
1!
1l!
1m!
1-
0p"
#40000
0!
0l!
0m!
0-
#45000
1!
1l!
1m!
1-
#48000
0#
0K
0\
0-
0$"
1[
0P
#50000
0!
0l!
0m!
1-
#55000
1!
1l!
1m!
0-
1d#
1@!
1;#
1@#
1N#
1R#
1*#
1x"
1>#
1<#
1:#
1O#
1o!
0n!
1X"
1O"
1E"
1:"
11"
0?!
1F
0u
0t
1o
0n
0g
0f
1a
0`
1b"
0B!
1`"
1Q
0J
1q
07
1s
09
1v
0_
0e
0;
1%"
1_
0c
16
1<
1C!
1W"
1L
18
1t
1`
1w
0a!
03!
1`!
1:
1g
1f
1a!
13!
0`!
0D!
1N"
1c
1b
1B
1e
1;
0b!
1e"
0P!
0<
1b!
0e"
1O!
1P!
1E!
1D"
0:
0g
0f
1Q!
1Z"
0c!
0\"
0F!
19"
1<
0R!
1M"
1S"
1G!
10"
1S!
1G"
0H!
1?
0T!
1<"
1I!
1U!
14"
0V!
1("
0W!
#60000
0!
0l!
0m!
1-
#65000
1!
1l!
1m!
0-
12#
1"#
1!#
1~"
1}"
1|"
1{"
1c#
0d#
1y"
0@!
19#
0@#
0N#
1Q#
0x"
1w"
1?#
0>#
1=#
0<#
1M#
1z"
1c"
1Y"
1Q"
1F"
1;"
12"
0p!
0%"
0o!
1n!
1K!
0O"
0E"
0:"
01"
1?!
0F
0x
0w
0o
1n
1g
1f
0c
0b
0b"
1B!
0`"
0Q
1J
0W"
0R
0L
1H
0p
06
0q
17
0r
08
0s
19
1h
0<
1C
1d"
1["
1R"
1H"
1="
15"
1q!
1p!
1%"
1X!
12!
0O!
0B
0e
0;
1p
16
0h
1<
1:
1W"
1R
1L
1S
1q
07
1r
18
1s
09
0t
0`
0i
1k
1)"
1g"
1]"
1U"
1J"
1@"
16"
0q!
1j!
1_!
1^!
0Q!
0Z"
1c!
1\"
0q
17
1i
0k
0S
0r
08
0s
19
1t
1`
1b
1!!
1j
1,"
1^"
1K"
17"
1k!
1r
18
0!!
0j
1s
09
0t
0`
0b
1=
0s
19
0=
1t
1`
1b
0t
0`
0b
1b
#65001
0o#
0n#
0m#
0l#
0k#
0j#
0i#
0Z#
0Y#
0X#
0W#
0V#
0U#
0T#
0h"
0_"
0V"
0L"
0A"
08"
0-"
0,
0+
0*
0)
0(
0'
0&
#70000
0!
0l!
0m!
1-
#75000
1!
1l!
1m!
0-
1p"
02#
0"#
1o"
1n"
0~"
1m"
0}"
1l"
0|"
1k"
0{"
1j"
1d#
1i"
0y"
1@!
09#
0;#
1@#
1N#
0R#
1x"
11#
1>#
1<#
18#
1P#
0O#
0z"
0c"
0Q"
0F"
0;"
02"
1o!
0n!
0K!
0X"
1O"
1E"
1:"
11"
0?!
1F
1x
1w
1u
1t
1o
0n
0g
0f
0a
1`
1b"
0B!
1`"
1Q
0J
1q
07
1s
09
1y
02!
1d
0:
1e
1;
0C
0d"
0R"
0H"
0="
05"
0p!
0%"
0X!
0y
12!
1O!
1B
0_
1c
0p
06
1h
0<
0W"
0R
0L
0r
08
0u
0t
1a
0`
1z
0_!
0^!
0)"
0g"
0U"
0J"
0@"
06"
1q!
0j!
0z
1_!
1^!
1f
1Q!
1Z"
0c!
0\"
0a!
03!
1`!
17
0i
1k
1S
19
1_
0c
1]!
1N!
1<
0S"
1R!
0M"
0,"
0K"
07"
0k!
0]!
0N!
0<
1d!
0R!
0b!
1e"
0O!
1a!
0P!
1!!
1j
0a
1`
13!
0`!
1I"
1c!
1\"
1b!
0e"
1=
0b
1O!
1P!
0d!
1S"
0c!
0\"
0I"
1d!
0S"
1I"
#75001
1o#
1m#
1k#
1i#
0h#
1Z#
1X#
1V#
1T#
0S#
1h"
1V"
1A"
1-"
0'"
1,
1*
1(
1&
0%
#80000
0!
0l!
0m!
1-
#85000
1!
1l!
1m!
0-
0p"
12#
1"#
0!#
0n"
1~"
0m"
1}"
0l"
1|"
0k"
1{"
0j"
0c#
0d#
1b#
0i"
1y"
0@!
19#
0@#
1L#
1K#
0Q#
1R#
1v"
0x"
0w"
0?#
0=#
0P#
1O#
0M#
1z"
1J#
1c"
0Y"
1Q"
1F"
1;"
12"
1p!
1%"
0o!
1n!
1r!
0q!
1K!
0E"
0:"
01"
1?!
0F
0x
0w
0o
1i
0k
14
0!!
0j
15
1c
1b
1a
0`
1P"
0N"
1T
0S
0b"
1B!
0`"
0Q
1J
1W"
1R
1L
0H
1p
16
1r
18
0d
1:
0e
0;
0h
1<
1C
0"!
0=
1d"
0["
1R"
1H"
1="
15"
0r!
1q!
0%"
1""
1X!
1y
02!
0O!
0B
06
1j
1"!
1=
0:
0c
0b
1B"
0C!
0W"
0L
0T
1S
07
09
0f
1k
1)"
1$!
1#!
1g"
0]"
1U"
1J"
1@"
16"
0""
1j!
1z
0_!
0^!
1g
1f
0Q!
0Z"
1c!
1\"
0$!
0#!
1:
1N"
0B"
1`
1,"
1%!
0^"
1K"
17"
1k!
1]!
1N!
0d!
1R!
0%!
#85001
0o#
0m#
0k#
0Z#
0X#
0V#
0h"
0V"
0A"
0,
0*
0(
