DLD Lab/Experiment#03/Code/FunctionGenerator/FreqPlusWaveGen/simulation/qsim/WaveformGenerator.msim.vcd
$comment
	File created using the following command:
		vcd file WaveformGenerator.msim.vcd -direction
$end
$date
	Mon Aug 24 15:37:30 2020
$end
$version
	ModelSim Version 10.1d
$end
$timescale
	1ps
$end
$scope module WaveformGenerator_vlg_vec_tst $end
$var reg 1 ! clk $end
$var reg 1 " rst $end
$var reg 13 # SW [12:0] $end
$var wire 1 $ result [7] $end
$var wire 1 % result [6] $end
$var wire 1 & result [5] $end
$var wire 1 ' result [4] $end
$var wire 1 ( result [3] $end
$var wire 1 ) result [2] $end
$var wire 1 * result [1] $end
$var wire 1 + result [0] $end
$var wire 1 , sampler $end
$scope module i1 $end
$var wire 1 - gnd $end
$var wire 1 . vcc $end
$var wire 1 / unknown $end
$var tri1 1 0 devclrn $end
$var tri1 1 1 devpor $end
$var tri1 1 2 devoe $end
$var wire 1 3 inst|sw|sine[0]~0_combout $end
$var wire 1 4 inst|sw|sine[3]~6_combout $end
$var wire 1 5 inst|sw|sine[5]~10_combout $end
$var wire 1 6 inst|sw|sine[6]~12_combout $end
$var wire 1 7 inst4|Add1~2_combout $end
$var wire 1 8 inst4|Add1~4_combout $end
$var wire 1 9 inst4|Add1~8_combout $end
$var wire 1 : inst4|Add1~10_combout $end
$var wire 1 ; inst4|Add1~12_combout $end
$var wire 1 < inst|fw|pre_cosine[2]~20_combout $end
$var wire 1 = inst|fw|pre_cosine[3]~22_combout $end
$var wire 1 > inst|fw|pre_cosine[5]~26_combout $end
$var wire 1 ? inst|fw|pre_cosine[8]~32_combout $end
$var wire 1 @ inst|counter[0]~8_combout $end
$var wire 1 A inst|rw|rhomboid_out[0]~9_combout $end
$var wire 1 B inst|rw|rhomboid_out[1]~11_combout $end
$var wire 1 C inst|rw|rhomboid_out[3]~15_combout $end
$var wire 1 D inst|rw|rhomboid_out[5]~20 $end
$var wire 1 E inst|rw|rhomboid_out[6]~21_combout $end
$var wire 1 F inst|rw|rhomboid_out[6]~22 $end
$var wire 1 G inst|rw|rhomboid_out[7]~23_combout $end
$var wire 1 H inst|Mux0~0_combout $end
$var wire 1 I inst|sw4|Add3~2_combout $end
$var wire 1 J inst|Mux4~0_combout $end
$var wire 1 K inst|Mux6~0_combout $end
$var wire 1 L inst|Mux7~0_combout $end
$var wire 1 M inst|Mux7~1_combout $end
$var wire 1 N inst4|Equal1~2_combout $end
$var wire 1 O inst|rw|rhomboid_out~25_combout $end
$var wire 1 P inst|rw|rhomboid_out~28_combout $end
$var wire 1 Q inst|rw|rhomboid_out~30_combout $end
$var wire 1 R inst|tw|triangle_out~7_combout $end
$var wire 1 S inst|rw|rhomboid_out~31_combout $end
$var wire 1 T ~GND~combout $end
$var wire 1 U clk~combout $end
$var wire 1 V clk~clkctrl_outclk $end
$var wire 1 W inst5~combout $end
$var wire 1 X inst4|Add1~1 $end
$var wire 1 Y inst4|Add1~3 $end
$var wire 1 Z inst4|Add1~5 $end
$var wire 1 [ inst4|Add1~7 $end
$var wire 1 \ inst4|Add1~9 $end
$var wire 1 ] inst4|Add1~11 $end
$var wire 1 ^ inst4|Add1~13 $end
$var wire 1 _ inst4|Add1~15 $end
$var wire 1 ` inst4|Add1~16_combout $end
$var wire 1 a inst4|Add1~6_combout $end
$var wire 1 b inst4|count[0]~9 $end
$var wire 1 c inst4|count[1]~11 $end
$var wire 1 d inst4|count[2]~12_combout $end
$var wire 1 e rst~combout $end
$var wire 1 f rst~clkctrl_outclk $end
$var wire 1 g inst4|Equal1~5_combout $end
$var wire 1 h inst4|count[2]~13 $end
$var wire 1 i inst4|count[3]~14_combout $end
$var wire 1 j inst4|Equal1~1_combout $end
$var wire 1 k inst4|Add1~0_combout $end
$var wire 1 l inst4|count[1]~10_combout $end
$var wire 1 m inst4|count[0]~8_combout $end
$var wire 1 n inst4|Equal1~0_combout $end
$var wire 1 o inst4|count[3]~15 $end
$var wire 1 p inst4|count[4]~16_combout $end
$var wire 1 q inst4|count[4]~17 $end
$var wire 1 r inst4|count[5]~18_combout $end
$var wire 1 s inst4|count[5]~19 $end
$var wire 1 t inst4|count[6]~20_combout $end
$var wire 1 u inst4|Add1~14_combout $end
$var wire 1 v inst4|count[6]~21 $end
$var wire 1 w inst4|count[7]~22_combout $end
$var wire 1 x inst4|Equal1~3_combout $end
$var wire 1 y inst4|Equal1~4_combout $end
$var wire 1 z inst4|clk_div~0_combout $end
$var wire 1 { inst4|clk_div~regout $end
$var wire 1 | inst4|clk_div~clkctrl_outclk $end
$var wire 1 } inst1|counter_out[0]~10_combout $end
$var wire 1 ~ inst1|counter_out[0]~11 $end
$var wire 1 !! inst1|counter_out[1]~13 $end
$var wire 1 "! inst1|counter_out[2]~15 $end
$var wire 1 #! inst1|counter_out[3]~16_combout $end
$var wire 1 $! inst1|counter_out[2]~14_combout $end
$var wire 1 %! inst1|Equal0~0_combout $end
$var wire 1 &! inst1|counter_out[3]~17 $end
$var wire 1 '! inst1|counter_out[4]~19 $end
$var wire 1 (! inst1|counter_out[5]~20_combout $end
$var wire 1 )! inst1|counter_out[5]~21 $end
$var wire 1 *! inst1|counter_out[6]~23 $end
$var wire 1 +! inst1|counter_out[7]~24_combout $end
$var wire 1 ,! inst1|counter_out[7]~25 $end
$var wire 1 -! inst1|counter_out[8]~26_combout $end
$var wire 1 .! inst1|counter_out[8]~27 $end
$var wire 1 /! inst1|counter_out[9]~28_combout $end
$var wire 1 0! inst1|Equal0~2_combout $end
$var wire 1 1! inst1|counter_out[4]~18_combout $end
$var wire 1 2! inst1|Equal0~1_combout $end
$var wire 1 3! inst1|always0~0_combout $end
$var wire 1 4! inst1|counter_out[1]~12_combout $end
$var wire 1 5! inst1|counter_out[6]~22_combout $end
$var wire 1 6! inst|counter[0]~9 $end
$var wire 1 7! inst|counter[1]~10_combout $end
$var wire 1 8! inst|counter[4]~16_combout $end
$var wire 1 9! inst|Equal0~0_combout $end
$var wire 1 :! inst|counter[2]~12_combout $end
$var wire 1 ;! inst|Equal0~1_combout $end
$var wire 1 <! inst|always0~0_combout $end
$var wire 1 =! inst|counter[1]~11 $end
$var wire 1 >! inst|counter[2]~13 $end
$var wire 1 ?! inst|counter[3]~14_combout $end
$var wire 1 @! inst|counter[3]~15 $end
$var wire 1 A! inst|counter[4]~17 $end
$var wire 1 B! inst|counter[5]~18_combout $end
$var wire 1 C! inst|counter[5]~19 $end
$var wire 1 D! inst|counter[6]~20_combout $end
$var wire 1 E! inst|counter[6]~21 $end
$var wire 1 F! inst|counter[7]~22_combout $end
$var wire 1 G! inst|sw2|always0~0_combout $end
$var wire 1 H! inst|sw4|toggle~0_combout $end
$var wire 1 I! inst|sw4|toggle~regout $end
$var wire 1 J! inst|wave_out[4]~0_combout $end
$var wire 1 K! inst|fw|pre_cosine[12]~40_combout $end
$var wire 1 L! inst|sw|sine[12]~24_combout $end
$var wire 1 M! inst|sw|sine[8]~16_combout $end
$var wire 1 N! inst|fw|pre_cosine[0]~16_combout $end
$var wire 1 O! inst|fw|pre_cosine[0]~17 $end
$var wire 1 P! inst|fw|pre_cosine[1]~18_combout $end
$var wire 1 Q! inst|fw|pre_cosine[1]~19 $end
$var wire 1 R! inst|fw|pre_cosine[2]~21 $end
$var wire 1 S! inst|fw|pre_cosine[3]~23 $end
$var wire 1 T! inst|fw|pre_cosine[4]~24_combout $end
$var wire 1 U! inst|fw|pre_cosine[4]~25 $end
$var wire 1 V! inst|fw|pre_cosine[5]~27 $end
$var wire 1 W! inst|fw|pre_cosine[6]~28_combout $end
$var wire 1 X! inst|sw|sine[0]~1 $end
$var wire 1 Y! inst|sw|sine[1]~2_combout $end
$var wire 1 Z! inst|sw|sine[1]~3 $end
$var wire 1 [! inst|sw|sine[2]~4_combout $end
$var wire 1 \! inst|sw|sine[2]~5 $end
$var wire 1 ]! inst|sw|sine[3]~7 $end
$var wire 1 ^! inst|sw|sine[4]~8_combout $end
$var wire 1 _! inst|sw|sine[4]~9 $end
$var wire 1 `! inst|sw|sine[5]~11 $end
$var wire 1 a! inst|sw|sine[6]~13 $end
$var wire 1 b! inst|sw|sine[7]~14_combout $end
$var wire 1 c! inst|sw|sine[7]~15 $end
$var wire 1 d! inst|sw|sine[8]~17 $end
$var wire 1 e! inst|sw|sine[9]~18_combout $end
$var wire 1 f! inst|sw|sine[9]~19 $end
$var wire 1 g! inst|sw|sine[10]~21 $end
$var wire 1 h! inst|sw|sine[11]~22_combout $end
$var wire 1 i! inst|sw|sine[11]~23 $end
$var wire 1 j! inst|sw|sine[12]~25 $end
$var wire 1 k! inst|sw|sine[13]~26_combout $end
$var wire 1 l! inst|sw|sine[13]~27 $end
$var wire 1 m! inst|sw|sine[14]~28_combout $end
$var wire 1 n! inst|fw|pre_cosine[6]~29 $end
$var wire 1 o! inst|fw|pre_cosine[7]~30_combout $end
$var wire 1 p! inst|fw|pre_cosine[7]~31 $end
$var wire 1 q! inst|fw|pre_cosine[8]~33 $end
$var wire 1 r! inst|fw|pre_cosine[9]~34_combout $end
$var wire 1 s! inst|fw|pre_cosine[9]~35 $end
$var wire 1 t! inst|fw|pre_cosine[10]~36_combout $end
$var wire 1 u! inst|fw|pre_cosine[10]~37 $end
$var wire 1 v! inst|fw|pre_cosine[11]~38_combout $end
$var wire 1 w! inst|fw|pre_cosine[11]~39 $end
$var wire 1 x! inst|fw|pre_cosine[12]~41 $end
$var wire 1 y! inst|fw|pre_cosine[13]~42_combout $end
$var wire 1 z! inst|fw|pre_cosine[13]~43 $end
$var wire 1 {! inst|fw|pre_cosine[14]~44_combout $end
$var wire 1 |! inst|fw|pre_cosine[14]~45 $end
$var wire 1 }! inst|fw|pre_cosine[15]~46_combout $end
$var wire 1 ~! inst|sw|sine[14]~29 $end
$var wire 1 !" inst|sw|sine[15]~30_combout $end
$var wire 1 "" inst|wave_out[4]~2_combout $end
$var wire 1 #" inst|wave_out[4]~3_combout $end
$var wire 1 $" inst|tw|triangle_out~0_combout $end
$var wire 1 %" inst|wave_out[4]~4_combout $end
$var wire 1 &" inst|sw|sine[10]~20_combout $end
$var wire 1 '" inst|sw4|Add2~1 $end
$var wire 1 (" inst|sw4|Add2~3 $end
$var wire 1 )" inst|sw4|Add2~5 $end
$var wire 1 *" inst|sw4|Add2~7 $end
$var wire 1 +" inst|sw4|Add2~9 $end
$var wire 1 ," inst|sw4|Add2~11 $end
$var wire 1 -" inst|sw4|Add2~13 $end
$var wire 1 ." inst|sw4|Add2~14_combout $end
$var wire 1 /" inst|sw4|Add2~12_combout $end
$var wire 1 0" inst|sw4|Add2~10_combout $end
$var wire 1 1" inst|sw4|Add2~6_combout $end
$var wire 1 2" inst|sw4|Add2~2_combout $end
$var wire 1 3" inst|fw|Add3~1_cout $end
$var wire 1 4" inst|fw|Add3~3 $end
$var wire 1 5" inst|fw|Add3~5 $end
$var wire 1 6" inst|fw|Add3~7 $end
$var wire 1 7" inst|fw|Add3~9 $end
$var wire 1 8" inst|fw|Add3~11 $end
$var wire 1 9" inst|fw|Add3~13 $end
$var wire 1 :" inst|fw|Add3~14_combout $end
$var wire 1 ;" inst|Mux0~1_combout $end
$var wire 1 <" inst|sw4|Add3~0_combout $end
$var wire 1 =" inst|sw4|Add3~1_combout $end
$var wire 1 >" inst|sw4|Add2~8_combout $end
$var wire 1 ?" inst|sw4|Add3~3_combout $end
$var wire 1 @" inst|sw4|Add3~4_combout $end
$var wire 1 A" inst|sw4|Add2~4_combout $end
$var wire 1 B" inst|sw4|Add3~5_combout $end
$var wire 1 C" inst|sw4|Add3~6_combout $end
$var wire 1 D" inst|sw4|Add2~0_combout $end
$var wire 1 E" inst|sw4|Add3~7_combout $end
$var wire 1 F" inst|sw4|Add3~9 $end
$var wire 1 G" inst|sw4|Add3~11 $end
$var wire 1 H" inst|sw4|Add3~13 $end
$var wire 1 I" inst|sw4|Add3~15 $end
$var wire 1 J" inst|sw4|Add3~17 $end
$var wire 1 K" inst|sw4|Add3~19 $end
$var wire 1 L" inst|sw4|Add3~21 $end
$var wire 1 M" inst|sw4|Add3~22_combout $end
$var wire 1 N" inst|Mux0~2_combout $end
$var wire 1 O" inst|Mux0~3_combout $end
$var wire 1 P" inst3|$00000|auto_generated|result_node[7]~0_combout $end
$var wire 1 Q" inst|wave_out[4]~5_combout $end
$var wire 1 R" inst|wave_out[4]~1_combout $end
$var wire 1 S" inst|tw|triangle_out~1_combout $end
$var wire 1 T" inst|Mux1~0_combout $end
$var wire 1 U" inst|fw|Add3~12_combout $end
$var wire 1 V" inst|Mux1~1_combout $end
$var wire 1 W" inst|sw4|Add3~20_combout $end
$var wire 1 X" inst|Mux1~2_combout $end
$var wire 1 Y" inst|Mux1~3_combout $end
$var wire 1 Z" inst3|$00000|auto_generated|result_node[6]~1_combout $end
$var wire 1 [" inst|rw|rhomboid_out[6]~8_combout $end
$var wire 1 \" inst|rw|rhomboid_out[0]~10 $end
$var wire 1 ]" inst|rw|rhomboid_out[1]~12 $end
$var wire 1 ^" inst|rw|rhomboid_out[2]~14 $end
$var wire 1 _" inst|rw|rhomboid_out[3]~16 $end
$var wire 1 `" inst|rw|rhomboid_out[4]~18 $end
$var wire 1 a" inst|rw|rhomboid_out[5]~19_combout $end
$var wire 1 b" inst|rw|rhomboid_out~26_combout $end
$var wire 1 c" inst|Mux2~0_combout $end
$var wire 1 d" inst|fw|Add3~10_combout $end
$var wire 1 e" inst|tw|triangle_out~2_combout $end
$var wire 1 f" inst|Mux2~1_combout $end
$var wire 1 g" inst|sw4|Add3~18_combout $end
$var wire 1 h" inst|Mux2~2_combout $end
$var wire 1 i" inst|Mux2~3_combout $end
$var wire 1 j" inst3|$00000|auto_generated|result_node[5]~2_combout $end
$var wire 1 k" inst|tw|triangle_out~3_combout $end
$var wire 1 l" inst|rw|rhomboid_out[4]~17_combout $end
$var wire 1 m" inst|rw|rhomboid_out~27_combout $end
$var wire 1 n" inst|Mux3~0_combout $end
$var wire 1 o" inst|fw|Add3~8_combout $end
$var wire 1 p" inst|Mux3~1_combout $end
$var wire 1 q" inst|sw4|Add3~16_combout $end
$var wire 1 r" inst|Mux3~2_combout $end
$var wire 1 s" inst|Mux3~3_combout $end
$var wire 1 t" inst3|$00000|auto_generated|result_node[4]~3_combout $end
$var wire 1 u" inst|sw4|Add3~14_combout $end
$var wire 1 v" inst|tw|triangle_out~4_combout $end
$var wire 1 w" inst|fw|Add3~6_combout $end
$var wire 1 x" inst|Mux4~1_combout $end
$var wire 1 y" inst|Mux4~2_combout $end
$var wire 1 z" inst|Mux4~3_combout $end
$var wire 1 {" inst3|$00000|auto_generated|result_node[3]~4_combout $end
$var wire 1 |" inst|tw|triangle_out~5_combout $end
$var wire 1 }" inst|rw|rhomboid_out[2]~13_combout $end
$var wire 1 ~" inst|rw|rhomboid_out~29_combout $end
$var wire 1 !# inst|Mux5~0_combout $end
$var wire 1 "# inst|fw|Add3~4_combout $end
$var wire 1 ## inst|Mux5~1_combout $end
$var wire 1 $# inst|sw4|Add3~12_combout $end
$var wire 1 %# inst|Mux5~2_combout $end
$var wire 1 &# inst|Mux5~3_combout $end
$var wire 1 '# inst3|$00000|auto_generated|result_node[2]~5_combout $end
$var wire 1 (# inst|tw|triangle_out~6_combout $end
$var wire 1 )# inst|fw|Add3~2_combout $end
$var wire 1 *# inst|Mux6~1_combout $end
$var wire 1 +# inst|sw4|Add3~10_combout $end
$var wire 1 ,# inst|Mux6~2_combout $end
$var wire 1 -# inst|Mux6~3_combout $end
$var wire 1 .# inst3|$00000|auto_generated|result_node[1]~6_combout $end
$var wire 1 /# inst|sw4|Add3~8_combout $end
$var wire 1 0# inst|Mux7~2_combout $end
$var wire 1 1# inst|Mux7~3_combout $end
$var wire 1 2# inst3|$00000|auto_generated|result_node[0]~7_combout $end
$var wire 1 3# inst|wave_out [7] $end
$var wire 1 4# inst|wave_out [6] $end
$var wire 1 5# inst|wave_out [5] $end
$var wire 1 6# inst|wave_out [4] $end
$var wire 1 7# inst|wave_out [3] $end
$var wire 1 8# inst|wave_out [2] $end
$var wire 1 9# inst|wave_out [1] $end
$var wire 1 :# inst|wave_out [0] $end
$var wire 1 ;# inst|counter [7] $end
$var wire 1 <# inst|counter [6] $end
$var wire 1 =# inst|counter [5] $end
$var wire 1 ># inst|counter [4] $end
$var wire 1 ?# inst|counter [3] $end
$var wire 1 @# inst|counter [2] $end
$var wire 1 A# inst|counter [1] $end
$var wire 1 B# inst|counter [0] $end
$var wire 1 C# inst|rw|rhomboid_out [7] $end
$var wire 1 D# inst|rw|rhomboid_out [6] $end
$var wire 1 E# inst|rw|rhomboid_out [5] $end
$var wire 1 F# inst|rw|rhomboid_out [4] $end
$var wire 1 G# inst|rw|rhomboid_out [3] $end
$var wire 1 H# inst|rw|rhomboid_out [2] $end
$var wire 1 I# inst|rw|rhomboid_out [1] $end
$var wire 1 J# inst|rw|rhomboid_out [0] $end
$var wire 1 K# inst|sw2|square_out [7] $end
$var wire 1 L# inst|sw2|square_out [6] $end
$var wire 1 M# inst|sw2|square_out [5] $end
$var wire 1 N# inst|sw2|square_out [4] $end
$var wire 1 O# inst|sw2|square_out [3] $end
$var wire 1 P# inst|sw2|square_out [2] $end
$var wire 1 Q# inst|sw2|square_out [1] $end
$var wire 1 R# inst|sw2|square_out [0] $end
$var wire 1 S# inst|tw|triangle_out [7] $end
$var wire 1 T# inst|tw|triangle_out [6] $end
$var wire 1 U# inst|tw|triangle_out [5] $end
$var wire 1 V# inst|tw|triangle_out [4] $end
$var wire 1 W# inst|tw|triangle_out [3] $end
$var wire 1 X# inst|tw|triangle_out [2] $end
$var wire 1 Y# inst|tw|triangle_out [1] $end
$var wire 1 Z# inst|tw|triangle_out [0] $end
$var wire 1 [# inst|fw|pre_sine [15] $end
$var wire 1 \# inst|fw|pre_sine [14] $end
$var wire 1 ]# inst|fw|pre_sine [13] $end
$var wire 1 ^# inst|fw|pre_sine [12] $end
$var wire 1 _# inst|fw|pre_sine [11] $end
$var wire 1 `# inst|fw|pre_sine [10] $end
$var wire 1 a# inst|fw|pre_sine [9] $end
$var wire 1 b# inst|fw|pre_sine [8] $end
$var wire 1 c# inst|fw|pre_sine [7] $end
$var wire 1 d# inst|fw|pre_sine [6] $end
$var wire 1 e# inst|fw|pre_sine [5] $end
$var wire 1 f# inst|fw|pre_sine [4] $end
$var wire 1 g# inst|fw|pre_sine [3] $end
$var wire 1 h# inst|fw|pre_sine [2] $end
$var wire 1 i# inst|fw|pre_sine [1] $end
$var wire 1 j# inst|fw|pre_sine [0] $end
$var wire 1 k# inst|fw|pre_cosine [15] $end
$var wire 1 l# inst|fw|pre_cosine [14] $end
$var wire 1 m# inst|fw|pre_cosine [13] $end
$var wire 1 n# inst|fw|pre_cosine [12] $end
$var wire 1 o# inst|fw|pre_cosine [11] $end
$var wire 1 p# inst|fw|pre_cosine [10] $end
$var wire 1 q# inst|fw|pre_cosine [9] $end
$var wire 1 r# inst|fw|pre_cosine [8] $end
$var wire 1 s# inst|fw|pre_cosine [7] $end
$var wire 1 t# inst|fw|pre_cosine [6] $end
$var wire 1 u# inst|fw|pre_cosine [5] $end
$var wire 1 v# inst|fw|pre_cosine [4] $end
$var wire 1 w# inst|fw|pre_cosine [3] $end
$var wire 1 x# inst|fw|pre_cosine [2] $end
$var wire 1 y# inst|fw|pre_cosine [1] $end
$var wire 1 z# inst|fw|pre_cosine [0] $end
$var wire 1 {# inst4|count [7] $end
$var wire 1 |# inst4|count [6] $end
$var wire 1 }# inst4|count [5] $end
$var wire 1 ~# inst4|count [4] $end
$var wire 1 !$ inst4|count [3] $end
$var wire 1 "$ inst4|count [2] $end
$var wire 1 #$ inst4|count [1] $end
$var wire 1 $$ inst4|count [0] $end
$var wire 1 %$ inst2|altsyncram_component|auto_generated|q_a [7] $end
$var wire 1 &$ inst2|altsyncram_component|auto_generated|q_a [6] $end
$var wire 1 '$ inst2|altsyncram_component|auto_generated|q_a [5] $end
$var wire 1 ($ inst2|altsyncram_component|auto_generated|q_a [4] $end
$var wire 1 )$ inst2|altsyncram_component|auto_generated|q_a [3] $end
$var wire 1 *$ inst2|altsyncram_component|auto_generated|q_a [2] $end
$var wire 1 +$ inst2|altsyncram_component|auto_generated|q_a [1] $end
$var wire 1 ,$ inst2|altsyncram_component|auto_generated|q_a [0] $end
$var wire 1 -$ inst1|counter_out [9] $end
$var wire 1 .$ inst1|counter_out [8] $end
$var wire 1 /$ inst1|counter_out [7] $end
$var wire 1 0$ inst1|counter_out [6] $end
$var wire 1 1$ inst1|counter_out [5] $end
$var wire 1 2$ inst1|counter_out [4] $end
$var wire 1 3$ inst1|counter_out [3] $end
$var wire 1 4$ inst1|counter_out [2] $end
$var wire 1 5$ inst1|counter_out [1] $end
$var wire 1 6$ inst1|counter_out [0] $end
$var wire 1 7$ SW~combout [12] $end
$var wire 1 8$ SW~combout [11] $end
$var wire 1 9$ SW~combout [10] $end
$var wire 1 :$ SW~combout [9] $end
$var wire 1 ;$ SW~combout [8] $end
$var wire 1 <$ SW~combout [7] $end
$var wire 1 =$ SW~combout [6] $end
$var wire 1 >$ SW~combout [5] $end
$var wire 1 ?$ SW~combout [4] $end
$var wire 1 @$ SW~combout [3] $end
$var wire 1 A$ SW~combout [2] $end
$var wire 1 B$ SW~combout [1] $end
$var wire 1 C$ SW~combout [0] $end
$var wire 1 D$ inst2|altsyncram_component|auto_generated|ram_block1a4_PORTADATAOUT_bus [3] $end
$var wire 1 E$ inst2|altsyncram_component|auto_generated|ram_block1a4_PORTADATAOUT_bus [2] $end
$var wire 1 F$ inst2|altsyncram_component|auto_generated|ram_block1a4_PORTADATAOUT_bus [1] $end
$var wire 1 G$ inst2|altsyncram_component|auto_generated|ram_block1a4_PORTADATAOUT_bus [0] $end
$var wire 1 H$ inst2|altsyncram_component|auto_generated|ram_block1a0_PORTADATAOUT_bus [3] $end
$var wire 1 I$ inst2|altsyncram_component|auto_generated|ram_block1a0_PORTADATAOUT_bus [2] $end
$var wire 1 J$ inst2|altsyncram_component|auto_generated|ram_block1a0_PORTADATAOUT_bus [1] $end
$var wire 1 K$ inst2|altsyncram_component|auto_generated|ram_block1a0_PORTADATAOUT_bus [0] $end
$upscope $end
$upscope $end
$enddefinitions $end
#0
$dumpvars
0!
0"
b1000110010 #
0+
0*
0)
0(
0'
0&
0%
0$
x,
0-
1.
x/
10
11
12
03
04
05
16
07
08
19
0:
0;
0<
1=
0>
0?
1@
0A
0B
0C
0D
0E
1F
0G
0H
0I
0J
0K
0L
0M
0N
0O
0P
0Q
0R
0S
0T
0U
0V
0W
1X
0Y
1Z
0[
1\
0]
1^
0_
1`
1a
0b
1c
0d
0e
0f
0g
0h
0i
0j
0k
0l
1m
1n
1o
0p
0q
0r
1s
0t
0u
0v
0w
1x
0y
0z
0{
0|
1}
0~
1!!
0"!
0#!
0$!
0%!
1&!
0'!
0(!
1)!
0*!
0+!
1,!
0-!
0.!
0/!
00!
01!
02!
03!
04!
05!
06!
07!
08!
09!
0:!
0;!
0<!
1=!
0>!
0?!
1@!
0A!
0B!
1C!
0D!
0E!
0F!
1G!
1H!
0I!
0J!
0K!
0L!
1M!
1N!
0O!
0P!
1Q!
0R!
1S!
1T!
1U!
0V!
0W!
0X!
0Y!
1Z!
1[!
0\!
1]!
1^!
0_!
1`!
0a!
1b!
1c!
0d!
0e!
1f!
0g!
0h!
1i!
0j!
0k!
1l!
0m!
1n!
0o!
0p!
1q!
0r!
0s!
0t!
1u!
0v!
0w!
1x!
0y!
0z!
0{!
1|!
0}!
0~!
0!"
0""
1#"
0$"
1%"
0&"
1'"
0("
1)"
0*"
1+"
0,"
1-"
0."
0/"
00"
01"
02"
13"
04"
15"
06"
17"
08"
19"
1:"
0;"
0<"
0="
0>"
0?"
0@"
0A"
0B"
0C"
0D"
1E"
1F"
1G"
0H"
1I"
0J"
1K"
0L"
0M"
1N"
0O"
0P"
1Q"
0R"
0S"
0T"
0U"
0V"
0W"
1X"
0Y"
0Z"
0["
1\"
0]"
1^"
0_"
1`"
0a"
0b"
0c"
0d"
0e"
0f"
0g"
1h"
0i"
0j"
0k"
0l"
0m"
0n"
0o"
0p"
0q"
1r"
0s"
0t"
0u"
0v"
0w"
0x"
1y"
0z"
0{"
0|"
0}"
0~"
0!#
0"#
0##
0$#
1%#
0&#
0'#
0(#
0)#
0*#
1+#
1,#
0-#
0.#
0/#
10#
01#
02#
0:#
09#
08#
07#
06#
05#
04#
03#
0B#
0A#
0@#
0?#
0>#
0=#
0<#
0;#
0J#
0I#
0H#
0G#
0F#
0E#
0D#
0C#
0R#
zQ#
zP#
zO#
zN#
zM#
zL#
zK#
0Z#
0Y#
0X#
0W#
0V#
0U#
0T#
0S#
0j#
0i#
0h#
0g#
0f#
0e#
0d#
0c#
0b#
0a#
0`#
0_#
0^#
0]#
0\#
0[#
0z#
0y#
0x#
0w#
0v#
0u#
0t#
0s#
0r#
0q#
0p#
0o#
0n#
0m#
0l#
0k#
0$$
0#$
0"$
0!$
0~#
0}#
0|#
0{#
0,$
0+$
0*$
0)$
0($
0'$
0&$
0%$
06$
05$
04$
03$
02$
01$
00$
0/$
0.$
0-$
zC$
1B$
0A$
0@$
1?$
1>$
0=$
0<$
0;$
1:$
09$
z8$
z7$
0G$
0F$
0E$
0D$
0K$
0J$
0I$
0H$
$end
#2500
1!
1U
1V
0,
1$$
0n
1b
0m
1l
#5000
0!
0U
0V
1,
#7500
1!
1U
1V
0,
0$$
1#$
0b
1m
0c
0l
1c
1l
1d
0d
#8000
1"
1e
1f
1,
0G!
1<!
13!
0#$
1n
0l
#10000
0!
0U
0V
0,
#12500
1!
1U
1V
1,
#15000
0!
0U
0V
0,
#17500
1!
1U
1V
1,
#20000
0!
0U
0V
0,
#22500
1!
1U
1V
1,
#24000
0"
0e
0f
0,
1G!
0<!
03!
#25000
0!
0U
0V
1,
#27500
1!
1U
1V
0,
1$$
0n
1b
0m
1l
#30000
0!
0U
0V
1,
#32500
1!
1U
1V
0,
0$$
1#$
0b
1m
0c
0l
1c
1l
1d
0d
#35000
0!
0U
0V
1,
#37500
1!
1U
1V
0,
1$$
1b
0m
0c
0l
1d
#40000
0!
0U
0V
1,
#42500
1!
1U
1V
0,
0$$
0#$
1"$
1n
0b
1m
1c
1l
1h
0d
0l
0h
1d
1i
0i
#45000
0!
0U
0V
1,
#47500
1!
1U
1V
0,
1$$
0n
1b
0m
1l
#50000
0!
0U
0V
1,
#52500
1!
1U
1V
0,
0$$
1#$
0b
1m
0c
0l
1c
1l
1h
0d
0h
1d
1i
0i
#55000
0!
0U
0V
1,
#57500
1!
1U
1V
0,
1$$
1b
0m
0c
0l
1h
0d
1i
#60000
0!
0U
0V
1,
#62500
1!
1U
1V
0,
0$$
0#$
1!$
0"$
1n
0b
1m
1c
1l
1j
0o
0i
0h
1d
0l
0d
1p
1o
1i
0p
#65000
0!
0U
0V
1,
#67500
1!
1U
1V
0,
1$$
0n
1b
0m
1l
#70000
0!
0U
0V
1,
#72500
1!
1U
1V
0,
0$$
1#$
0b
1m
0c
0l
1c
1l
1d
0d
#75000
0!
0U
0V
1,
#77500
1!
1U
1V
0,
1$$
1b
0m
0c
0l
1d
#80000
0!
0U
0V
1,
#82500
1!
1U
1V
0,
0$$
0#$
1"$
1n
0b
1m
1c
1l
0j
1h
0d
0l
0h
1d
0o
0i
1o
1i
1p
0p
#85000
0!
0U
0V
1,
#87500
1!
1U
1V
0,
1$$
0n
1b
0m
1l
#90000
0!
0U
0V
1,
#92500
1!
1U
1V
0,
0$$
1#$
0b
1m
0c
0l
1c
1l
1h
0d
0h
1d
0o
0i
1o
1i
1p
0p
#95000
0!
0U
0V
1,
#97500
1!
1U
1V
0,
1$$
1b
0m
0c
0l
1h
0d
0o
0i
1p
#100000
0!
0U
0V
1,
#102500
1!
1U
1V
0,
1~#
0$$
0#$
0!$
0"$
1q
0p
1N
1n
0b
1m
1c
1l
1o
1i
0h
1d
1r
0l
0d
0q
1p
0i
0r
#105000
0!
0U
0V
1,
#107500
1!
1U
1V
0,
1$$
0n
1b
0m
1l
#110000
0!
0U
0V
1,
#112500
1!
1U
1V
0,
0$$
1#$
0b
1m
0c
0l
1c
1l
1d
0d
#115000
0!
0U
0V
1,
#117500
1!
1U
1V
0,
1$$
1b
0m
0c
0l
1d
#120000
0!
0U
0V
1,
#122500
1!
1U
1V
0,
0$$
0#$
1"$
1n
0b
1m
1c
1l
1h
0d
0l
0h
1d
1i
0i
#125000
0!
0U
0V
1,
#127500
1!
1U
1V
0,
1$$
0n
1b
0m
1l
#130000
0!
0U
0V
1,
#132500
1!
1U
1V
0,
0$$
1#$
0b
1m
0c
0l
1c
1l
1h
0d
0h
1d
1i
0i
#135000
0!
0U
0V
1,
#137500
1!
1U
1V
0,
1$$
1b
0m
0c
0l
1h
0d
1i
#140000
0!
0U
0V
1,
#142500
1!
1U
1V
0,
0$$
0#$
1!$
0"$
1n
0b
1m
1c
1l
1j
0o
0i
0h
1d
1y
0l
0d
1q
0p
1o
1i
1z
1g
1r
0q
1p
0r
#145000
0!
0U
0V
1,
