DLD Lab/Experiment#01/Code/Part3/Section2/simulation/qsim/CounterDivider.msim.vcd
$comment
	File created using the following command:
		vcd file CounterDivider.msim.vcd -direction
$end
$date
	Wed Aug 12 05:19:59 2020
$end
$version
	ModelSim Version 10.1d
$end
$timescale
	1ps
$end
$scope module CounterDivider_vlg_vec_tst $end
$var reg 1 ! clk $end
$var reg 1 " DownUp $end
$var reg 1 # GN $end
$var reg 1 $ In0 $end
$var reg 1 % In1 $end
$var reg 1 & In2 $end
$var reg 1 ' In3 $end
$var reg 1 ( In4 $end
$var reg 1 ) In5 $end
$var reg 1 * In6 $end
$var reg 1 + In7 $end
$var reg 1 , Init $end
$var wire 1 - cout $end
$var wire 1 . MaxMin2 $end
$var wire 1 / out0 $end
$var wire 1 0 out1 $end
$var wire 1 1 out2 $end
$var wire 1 2 out3 $end
$var wire 1 3 out4 $end
$var wire 1 4 out5 $end
$var wire 1 5 out6 $end
$var wire 1 6 out7 $end
$var wire 1 7 sampler $end
$scope module i1 $end
$var wire 1 8 gnd $end
$var wire 1 9 vcc $end
$var wire 1 : unknown $end
$var tri1 1 ; devclrn $end
$var tri1 1 < devpor $end
$var tri1 1 = devoe $end
$var wire 1 > clk~input_o $end
$var wire 1 ? out0~output_o $end
$var wire 1 @ out1~output_o $end
$var wire 1 A out2~output_o $end
$var wire 1 B out3~output_o $end
$var wire 1 C out4~output_o $end
$var wire 1 D out5~output_o $end
$var wire 1 E out6~output_o $end
$var wire 1 F out7~output_o $end
$var wire 1 G cout~output_o $end
$var wire 1 H MaxMin2~output_o $end
$var wire 1 I GN~input_o $end
$var wire 1 J In4~input_o $end
$var wire 1 K inst2|sub|16~3_combout $end
$var wire 1 L inst5|4~clkctrl_outclk $end
$var wire 1 M inst2|sub|16~_emulated_q $end
$var wire 1 N inst2|sub|16~1_combout $end
$var wire 1 O inst2|sub|16~2_combout $end
$var wire 1 P DownUp~input_o $end
$var wire 1 Q inst2|sub|74~0_combout $end
$var wire 1 R In6~input_o $end
$var wire 1 S inst2|sub|18~1_combout $end
$var wire 1 T inst2|sub|64~0_combout $end
$var wire 1 U In5~input_o $end
$var wire 1 V inst2|sub|17~1_combout $end
$var wire 1 W inst2|sub|17~5_combout $end
$var wire 1 X inst2|sub|17~3_combout $end
$var wire 1 Y inst2|sub|17~_emulated_q $end
$var wire 1 Z inst2|sub|17~2_combout $end
$var wire 1 [ inst2|sub|74~1_combout $end
$var wire 1 \ inst2|sub|18~3_combout $end
$var wire 1 ] inst2|sub|18~_emulated_q $end
$var wire 1 ^ inst2|sub|18~2_combout $end
$var wire 1 _ inst2|sub|113~0_combout $end
$var wire 1 ` Init~input_o $end
$var wire 1 a inst5|4~combout $end
$var wire 1 b inst|sub|16~1_combout $end
$var wire 1 c In0~input_o $end
$var wire 1 d inst|sub|16~3_combout $end
$var wire 1 e inst|sub|16~_emulated_q $end
$var wire 1 f inst|sub|16~2_combout $end
$var wire 1 g In1~input_o $end
$var wire 1 h inst|sub|17~1_combout $end
$var wire 1 i inst|sub|64~0_combout $end
$var wire 1 j inst|sub|17~3_combout $end
$var wire 1 k inst|sub|17~_emulated_q $end
$var wire 1 l inst|sub|17~2_combout $end
$var wire 1 m In2~input_o $end
$var wire 1 n inst|sub|18~1_combout $end
$var wire 1 o inst|sub|64~1_combout $end
$var wire 1 p inst|sub|74~1_combout $end
$var wire 1 q inst|sub|18~3_combout $end
$var wire 1 r inst|sub|18~_emulated_q $end
$var wire 1 s inst|sub|18~2_combout $end
$var wire 1 t inst|sub|19~1_combout $end
$var wire 1 u inst|sub|74~0_combout $end
$var wire 1 v inst|sub|89~0_combout $end
$var wire 1 w inst|sub|19~3_combout $end
$var wire 1 x inst|sub|19~_emulated_q $end
$var wire 1 y In3~input_o $end
$var wire 1 z inst|sub|19~2_combout $end
$var wire 1 { In7~input_o $end
$var wire 1 | inst2|sub|19~1_combout $end
$var wire 1 } inst2|sub|89~0_combout $end
$var wire 1 ~ inst2|sub|19~3_combout $end
$var wire 1 !! inst2|sub|19~_emulated_q $end
$var wire 1 "! inst2|sub|19~2_combout $end
$var wire 1 #! inst|sub|113~combout $end
$upscope $end
$upscope $end
$enddefinitions $end
#0
$dumpvars
0!
0"
1#
1$
1%
1&
1'
0(
0)
0*
1+
1,
1-
0.
x/
x0
x1
x2
x3
x4
x5
x6
x7
08
19
x:
1;
1<
1=
0>
x?
x@
xA
xB
xC
xD
xE
xF
1G
0H
1I
0J
xK
0L
0M
xN
xO
0P
0Q
0R
xS
0T
0U
xV
xW
xX
0Y
xZ
x[
x\
0]
x^
0_
1`
0a
xb
1c
xd
0e
xf
1g
xh
xi
xj
0k
xl
1m
xn
0o
xp
xq
0r
xs
xt
0u
xv
xw
0x
1y
xz
1{
x|
x}
x~
0!!
x"!
0#!
$end
#25000
1!
1>
07
xx
xr
xk
xe
#50000
0!
0>
17
#75000
1!
1>
07
#100000
0!
0>
17
#125000
1!
1>
07
#150000
0!
0>
17
#160000
0,
0`
07
1a
1L
1t
1n
1h
1b
1|
0V
0S
0N
1"!
1z
1s
1l
1f
0^
0Z
0O
0w
0q
0j
0d
0~
1W
0\
0K
1v
1p
1i
0}
0[
1F
1B
1A
1@
1?
0E
0D
0C
16
12
11
10
1/
05
04
03
0X
0e
0k
0r
0x
#175000
1!
1>
17
#200000
0!
0>
07
#225000
1!
1>
17
#250000
0!
0>
07
#275000
1!
1>
17
#300000
0!
0>
07
#325000
1!
1>
17
#350000
0!
0>
07
#375000
1!
1>
17
#400000
1,
0!
1`
0>
07
0a
0L
#425000
1!
1>
17
#450000
0!
0>
07
#475000
1!
1>
17
#480000
0#
0I
07
1u
1o
1j
1d
1X
0W
1K
1#!
1w
1q
0X
0G
0-
1Y
1M
1Z
1O
1[
1Q
1T
0K
1D
1C
14
13
1\
#500000
0!
0>
17
#525000
1!
1>
07
1x
1r
1k
1e
0z
0s
0l
0f
0#!
0w
0v
0q
0u
0p
0j
0o
0i
0d
0B
0A
0@
0?
02
01
00
0/
1w
1q
1j
1G
1-
#550000
0!
0>
17
#575000
1!
1>
07
0e
1f
1o
1i
1d
1?
1/
0j
#600000
0!
0>
17
#625000
1!
1>
07
0k
1e
1l
0f
1p
1j
0o
0i
0d
1@
0?
10
0/
0j
#650000
0!
0>
17
#675000
1!
1>
07
0e
1f
1u
1o
1i
1d
1?
1/
0q
1j
#700000
0!
0>
17
#725000
1!
1>
07
0r
1k
1e
1s
0l
0f
1v
1q
0u
0p
0j
0o
0i
0d
1A
0@
0?
11
00
0/
0q
1j
#750000
0!
0>
17
#775000
1!
1>
07
0e
1f
1o
1i
1d
1?
1/
0j
#800000
0!
0>
17
#825000
1!
1>
07
0k
1e
1l
0f
1p
1j
0o
0i
0d
1@
0?
10
0/
0j
#850000
0!
0>
17
#875000
1!
1>
07
0e
1f
1u
1o
1i
1d
1?
1/
0w
1q
1j
#900000
0!
0>
17
#925000
1!
1>
07
0x
1r
1k
1e
1z
0s
0l
0f
1w
0v
0q
0u
0p
0j
0o
0i
0d
1B
0A
0@
0?
12
01
00
0/
0w
1q
1j
#950000
0!
0>
17
#975000
1!
1>
07
0e
1f
1o
1i
1d
1?
1/
0j
#1000000
0!
0>
17
#1025000
1!
1>
07
0k
1e
1l
0f
1p
1j
0o
0i
0d
1@
0?
10
0/
0j
#1050000
0!
0>
17
#1075000
1!
1>
07
0e
1f
1u
1o
1i
1d
1?
1/
0q
1j
#1100000
0!
0>
17
#1125000
1!
1>
07
0r
1k
1e
1s
0l
0f
1#!
1v
1q
0u
0p
0j
0o
0i
0d
1A
0@
0?
11
00
0/
0#!
0q
1j
0G
0-
1G
1-
1]
0Y
0M
1^
0Z
0O
1}
0\
0[
0Q
0T
1K
1E
0D
0C
15
04
03
1_
1\
1a
1H
1L
1.
0_
0a
0H
0L
0.
1l
1f
0^
1u
1p
0j
1o
1i
1d
0}
0\
1@
1?
0E
10
1/
05
0l
0f
1^
1#!
1w
1q
0u
0p
0o
0i
0d
1}
1\
0@
0?
1E
00
0/
15
0#!
0w
0q
1j
0G
0-
1G
1-
1M
0]
0e
0k
1O
0^
1f
1l
1X
1T
0K
0}
0\
1u
1o
1i
1d
1p
0j
1C
0E
1?
1@
13
05
1/
10
1#!
1w
1q
1j
0G
0-
1Y
0M
1Z
0O
1[
0T
1K
1D
0C
14
03
#1150000
0!
0>
17
#1175000
1!
1>
07
1x
1r
1k
1e
0z
0s
0l
0f
0#!
0w
0v
0q
0u
0p
0j
0o
0i
0d
0B
0A
0@
0?
02
01
00
0/
1w
1q
1j
1G
1-
#1200000
0!
0>
17
#1225000
1!
1>
07
0e
1f
1o
1i
1d
1?
1/
0j
#1250000
0!
0>
17
#1275000
1!
1>
07
0k
1e
1l
0f
1p
1j
0o
0i
0d
1@
0?
10
0/
0j
#1300000
0!
0>
17
#1325000
1!
1>
07
0e
1f
1u
1o
1i
1d
1?
1/
0q
1j
#1350000
0!
0>
17
#1375000
1!
1>
07
0r
1k
1e
1s
0l
0f
1v
1q
0u
0p
0j
0o
0i
0d
1A
0@
0?
11
00
0/
0q
1j
#1400000
0!
0>
17
#1425000
1!
1>
07
0e
1f
1o
1i
1d
1?
1/
0j
#1450000
0!
0>
17
#1475000
1!
1>
07
0k
1e
1l
0f
1p
1j
0o
0i
0d
1@
0?
10
0/
0j
#1500000
0!
0>
17
#1525000
1!
1>
07
0e
1f
1u
1o
1i
1d
1?
1/
0w
1q
1j
#1550000
0!
0>
17
#1575000
1!
1>
07
0x
1r
1k
1e
1z
0s
0l
0f
1w
0v
0q
0u
0p
0j
0o
0i
0d
1B
0A
0@
0?
12
01
00
0/
0w
1q
1j
#1600000
0!
0>
17
#1625000
1!
1>
07
0e
1f
1o
1i
1d
1?
1/
0j
#1650000
0!
0>
17
#1675000
1!
1>
07
0k
1e
1l
0f
1p
1j
0o
0i
0d
1@
0?
10
0/
0j
#1700000
0!
0>
17
#1725000
1!
1>
07
0e
1f
1u
1o
1i
1d
1?
1/
0q
1j
#1750000
0!
0>
17
#1775000
1!
1>
07
0r
1k
1e
1s
0l
0f
1#!
1v
1q
0u
0p
0j
0o
0i
0d
1A
0@
0?
11
00
0/
0#!
0q
1j
0G
0-
1G
1-
1M
1O
0X
1T
1Q
0K
1C
13
1\
#1800000
0!
0>
17
#1825000
1!
1>
07
0e
1f
1o
1i
1d
1?
1/
0j
#1850000
0!
0>
17
#1875000
1!
1>
07
0k
1e
1l
0f
1p
1j
0o
0i
0d
1@
0?
10
0/
0j
#1900000
0!
0>
17
#1925000
1!
1>
07
0e
1f
1u
1o
1i
1d
1?
1/
1#!
1w
1q
1j
0G
0-
1]
0Y
0M
1^
0Z
0O
1}
0\
0[
0Q
0T
1K
1E
0D
0C
15
04
03
1_
1\
1a
1H
1L
1.
0_
0a
0H
0L
0.
0^
0}
0\
0E
05
1^
1}
1\
1E
15
0]
0^
0}
0\
0E
05
#1950000
0!
0>
17
#1975000
1!
1>
07
1x
1r
1k
1e
0z
0s
0l
0f
0#!
0w
0v
0q
0u
0p
0j
0o
0i
0d
0B
0A
0@
0?
02
01
00
0/
1w
1q
1j
1G
1-
#2000000
0!
0>
17
#2025000
1!
1>
07
0e
1f
1o
1i
1d
1?
1/
0j
#2050000
0!
0>
17
#2075000
1!
1>
07
0k
1e
1l
0f
1p
1j
0o
0i
0d
1@
0?
10
0/
0j
#2100000
0!
0>
17
#2125000
1!
1>
07
0e
1f
1u
1o
1i
1d
1?
1/
0q
1j
#2150000
0!
0>
17
#2175000
1!
1>
07
0r
1k
1e
1s
0l
0f
1v
1q
0u
0p
0j
0o
0i
0d
1A
0@
0?
11
00
0/
0q
1j
#2200000
0!
0>
17
#2225000
1!
1>
07
0e
1f
1o
1i
1d
1?
1/
0j
#2250000
0!
0>
17
#2275000
1!
1>
07
0k
1e
1l
0f
1p
1j
0o
0i
0d
1@
0?
10
0/
0j
#2300000
0!
0>
17
#2325000
1!
1>
07
0e
1f
1u
1o
1i
1d
1?
1/
0w
1q
1j
#2350000
0!
0>
17
#2375000
1!
1>
07
0x
1r
1k
1e
1z
0s
0l
0f
1w
0v
0q
0u
0p
0j
0o
0i
0d
1B
0A
0@
0?
12
01
00
0/
0w
1q
1j
#2400000
0!
0>
17
#2425000
1!
1>
07
0e
1f
1o
1i
1d
1?
1/
0j
#2450000
0!
0>
17
#2475000
1!
1>
07
0k
1e
1l
0f
1p
1j
0o
0i
0d
1@
0?
10
0/
0j
#2500000
0!
0>
17
#2525000
1!
1>
07
0e
1f
1u
1o
1i
1d
1?
1/
0q
1j
#2550000
0!
0>
17
#2575000
1!
1>
07
0r
1k
1e
1s
0l
0f
1#!
1v
1q
0u
0p
0j
0o
0i
0d
1A
0@
0?
11
00
0/
0#!
0q
1j
0G
0-
1G
1-
1M
1O
1X
1T
0K
1C
13
#2600000
0!
0>
17
#2625000
1!
1>
07
0e
1f
1o
1i
1d
1?
1/
0j
#2650000
0!
0>
17
#2675000
1!
1>
07
0k
1e
1l
0f
1p
1j
0o
0i
0d
1@
0?
10
0/
0j
#2700000
0!
0>
17
#2725000
1!
1>
07
0e
1f
1u
1o
1i
1d
1?
1/
1#!
1w
1q
1j
0G
0-
1Y
0M
1Z
0O
1[
0T
1K
1D
0C
14
03
#2750000
0!
0>
17
#2775000
1!
1>
07
1x
1r
1k
1e
0z
0s
0l
0f
0#!
0w
0v
0q
0u
0p
0j
0o
0i
0d
0B
0A
0@
0?
02
01
00
0/
1w
1q
1j
1G
1-
#2800000
0!
0>
17
#2825000
1!
1>
07
0e
1f
1o
1i
1d
1?
1/
0j
#2850000
0!
0>
17
#2875000
1!
1>
07
0k
1e
1l
0f
1p
1j
0o
0i
0d
1@
0?
10
0/
0j
#2900000
0!
0>
17
#2925000
1!
1>
07
0e
1f
1u
1o
1i
1d
1?
1/
0q
1j
#2950000
0!
0>
17
#2975000
1!
1>
07
0r
1k
1e
1s
0l
0f
1v
1q
0u
0p
0j
0o
0i
0d
1A
0@
0?
11
00
0/
0q
1j
#3000000
0!
0>
17
#3025000
1!
1>
07
0e
1f
1o
1i
1d
1?
1/
0j
#3050000
0!
0>
17
#3075000
1!
1>
07
0k
1e
1l
0f
1p
1j
0o
0i
0d
1@
0?
10
0/
0j
#3100000
0!
0>
17
#3125000
1!
1>
07
0e
1f
1u
1o
1i
1d
1?
1/
0w
1q
1j
#3150000
0!
0>
17
#3175000
1!
1>
07
0x
1r
1k
1e
1z
0s
0l
0f
1w
0v
0q
0u
0p
0j
0o
0i
0d
1B
0A
0@
0?
12
01
00
0/
0w
1q
1j
#3200000
0!
0>
17
#3225000
1!
1>
07
0e
1f
1o
1i
1d
1?
1/
0j
#3250000
0!
0>
17
#3275000
1!
1>
07
0k
1e
1l
0f
1p
1j
0o
0i
0d
1@
0?
10
0/
0j
#3300000
0!
0>
17
#3325000
1!
1>
07
0e
1f
1u
1o
1i
1d
1?
1/
0q
1j
#3350000
0!
0>
17
#3375000
1!
1>
07
0r
1k
1e
1s
0l
0f
1#!
1v
1q
0u
0p
0j
0o
0i
0d
1A
0@
0?
11
00
0/
0#!
0q
1j
0G
0-
1G
1-
1M
1O
0X
1T
1Q
0K
1C
13
1\
#3400000
0!
0>
17
#3425000
1!
1>
07
0e
1f
1o
1i
1d
1?
1/
0j
#3450000
0!
0>
17
#3475000
1!
1>
07
0k
1e
1l
0f
1p
1j
0o
0i
0d
1@
0?
10
0/
0j
#3500000
0!
0>
17
#3525000
1!
1>
07
0e
1f
1u
1o
1i
1d
1?
1/
1#!
1w
1q
1j
0G
0-
1]
0Y
0M
1^
0Z
0O
1}
0\
0[
0Q
0T
1K
1E
0D
0C
15
04
03
1_
1\
1a
1H
1L
1.
0_
0a
0H
0L
0.
0^
0}
0\
0E
05
1^
1}
1\
1E
15
0]
0^
0}
0\
0E
05
#3550000
0!
0>
17
#3575000
1!
1>
07
1x
1r
1k
1e
0z
0s
0l
0f
0#!
0w
0v
0q
0u
0p
0j
0o
0i
0d
0B
0A
0@
0?
02
01
00
0/
1w
1q
1j
1G
1-
#3600000
0!
0>
17
#3625000
1!
1>
07
0e
1f
1o
1i
1d
1?
1/
0j
#3650000
0!
0>
17
#3675000
1!
1>
07
0k
1e
1l
0f
1p
1j
0o
0i
0d
1@
0?
10
0/
0j
#3700000
0!
0>
17
#3725000
1!
1>
07
0e
1f
1u
1o
1i
1d
1?
1/
0q
1j
#3750000
0!
0>
17
#3775000
1!
1>
07
0r
1k
1e
1s
0l
0f
1v
1q
0u
0p
0j
0o
0i
0d
1A
0@
0?
11
00
0/
0q
1j
#3800000
0!
0>
17
#3825000
1!
1>
07
0e
1f
1o
1i
1d
1?
1/
0j
#3850000
0!
0>
17
#3875000
1!
1>
07
0k
1e
1l
0f
1p
1j
0o
0i
0d
1@
0?
10
0/
0j
#3900000
0!
0>
17
#3925000
1!
1>
07
0e
1f
1u
1o
1i
1d
1?
1/
0w
1q
1j
#3950000
0!
0>
17
#3975000
1!
1>
07
0x
1r
1k
1e
1z
0s
0l
0f
1w
0v
0q
0u
0p
0j
0o
0i
0d
1B
0A
0@
0?
12
01
00
0/
0w
1q
1j
#4000000
0!
0>
17
#4025000
1!
1>
07
0e
1f
1o
1i
1d
1?
1/
0j
#4050000
0!
0>
17
#4075000
1!
1>
07
0k
1e
1l
0f
1p
1j
0o
0i
0d
1@
0?
10
0/
0j
#4100000
0!
0>
17
#4125000
1!
1>
07
0e
1f
1u
1o
1i
1d
1?
1/
0q
1j
#4150000
0!
0>
17
#4175000
1!
1>
07
0r
1k
1e
1s
0l
0f
1#!
1v
1q
0u
0p
0j
0o
0i
0d
1A
0@
0?
11
00
0/
0#!
0q
1j
0G
0-
1G
1-
1M
1O
1X
1T
0K
1C
13
#4200000
0!
0>
17
#4225000
1!
1>
07
0e
1f
1o
1i
1d
1?
1/
0j
#4250000
0!
0>
17
#4275000
1!
1>
07
0k
1e
1l
0f
1p
1j
0o
0i
0d
1@
0?
10
0/
0j
#4300000
0!
0>
17
#4325000
1!
1>
07
0e
1f
1u
1o
1i
1d
1?
1/
1#!
1w
1q
1j
0G
0-
1Y
0M
1Z
0O
1[
0T
1K
1D
0C
14
03
#4350000
0!
0>
17
#4375000
1!
1>
07
1x
1r
1k
1e
0z
0s
0l
0f
0#!
0w
0v
0q
0u
0p
0j
0o
0i
0d
0B
0A
0@
0?
02
01
00
0/
1w
1q
1j
1G
1-
#4400000
0!
0>
17
#4425000
1!
1>
07
0e
1f
1o
1i
1d
1?
1/
0j
#4450000
0!
0>
17
#4475000
1!
1>
07
0k
1e
1l
0f
1p
1j
0o
0i
0d
1@
0?
10
0/
0j
#4500000
0!
0>
17
#4525000
1!
1>
07
0e
1f
1u
1o
1i
1d
1?
1/
0q
1j
#4550000
0!
0>
17
#4575000
1!
1>
07
0r
1k
1e
1s
0l
0f
1v
1q
0u
0p
0j
0o
0i
0d
1A
0@
0?
11
00
0/
0q
1j
#4600000
0!
0>
17
#4625000
1!
1>
07
0e
1f
1o
1i
1d
1?
1/
0j
#4650000
0!
0>
17
#4675000
1!
1>
07
0k
1e
1l
0f
1p
1j
0o
0i
0d
1@
0?
10
0/
0j
#4700000
0!
0>
17
#4725000
1!
1>
07
0e
1f
1u
1o
1i
1d
1?
1/
0w
1q
1j
#4750000
0!
0>
17
#4775000
1!
1>
07
0x
1r
1k
1e
1z
0s
0l
0f
1w
0v
0q
0u
0p
0j
0o
0i
0d
1B
0A
0@
0?
12
01
00
0/
0w
1q
1j
#4800000
0!
0>
17
#4825000
1!
1>
07
0e
1f
1o
1i
1d
1?
1/
0j
#4850000
0!
0>
17
#4875000
1!
1>
07
0k
1e
1l
0f
1p
1j
0o
0i
0d
1@
0?
10
0/
0j
#4900000
0!
0>
17
#4925000
1!
1>
07
0e
1f
1u
1o
1i
1d
1?
1/
0q
1j
#4950000
0!
0>
17
#4975000
1!
1>
07
0r
1k
1e
1s
0l
0f
1#!
1v
1q
0u
0p
0j
0o
0i
0d
1A
0@
0?
11
00
0/
0#!
0q
1j
0G
0-
1G
1-
1M
1O
0X
1T
1Q
0K
1C
13
1\
#5000000
0!
0>
17
#5025000
1!
1>
07
0e
1f
1o
1i
1d
1?
1/
0j
#5050000
0!
0>
17
#5075000
1!
1>
07
0k
1e
1l
0f
1p
1j
0o
0i
0d
1@
0?
10
0/
0j
#5100000
0!
0>
17
#5125000
1!
1>
07
0e
1f
1u
1o
1i
1d
1?
1/
1#!
1w
1q
1j
0G
0-
1]
0Y
0M
1^
0Z
0O
1}
0\
0[
0Q
0T
1K
1E
0D
0C
15
04
03
1_
1\
1a
1H
1L
1.
0_
0a
0H
0L
0.
0^
0}
0\
0E
05
1^
1}
1\
1E
15
0]
0^
0}
0\
0E
05
#5150000
0!
0>
17
#5175000
1!
1>
07
1x
1r
1k
1e
0z
0s
0l
0f
0#!
0w
0v
0q
0u
0p
0j
0o
0i
0d
0B
0A
0@
0?
02
01
00
0/
1w
1q
1j
1G
1-
#5200000
0!
0>
17
#5225000
1!
1>
07
0e
1f
1o
1i
1d
1?
1/
0j
#5250000
0!
0>
17
#5275000
1!
1>
07
0k
1e
1l
0f
1p
1j
0o
0i
0d
1@
0?
10
0/
0j
#5300000
0!
0>
17
#5325000
1!
1>
07
0e
1f
1u
1o
1i
1d
1?
1/
0q
1j
#5350000
0!
0>
17
#5375000
1!
1>
07
0r
1k
1e
1s
0l
0f
1v
1q
0u
0p
0j
0o
0i
0d
1A
0@
0?
11
00
0/
0q
1j
#5400000
0!
0>
17
#5425000
1!
1>
07
0e
1f
1o
1i
1d
1?
1/
0j
#5450000
0!
0>
17
#5475000
1!
1>
07
0k
1e
1l
0f
1p
1j
0o
0i
0d
1@
0?
10
0/
0j
#5500000
0!
0>
17
#5525000
1!
1>
07
0e
1f
1u
1o
1i
1d
1?
1/
0w
1q
1j
#5550000
0!
0>
17
#5575000
1!
1>
07
0x
1r
1k
1e
1z
0s
0l
0f
1w
0v
0q
0u
0p
0j
0o
0i
0d
1B
0A
0@
0?
12
01
00
0/
0w
1q
1j
#5600000
0!
0>
17
#5625000
1!
1>
07
0e
1f
1o
1i
1d
1?
1/
0j
#5650000
0!
0>
17
#5675000
1!
1>
07
0k
1e
1l
0f
1p
1j
0o
0i
0d
1@
0?
10
0/
0j
#5700000
0!
0>
17
#5725000
1!
1>
07
0e
1f
1u
1o
1i
1d
1?
1/
0q
1j
#5750000
0!
0>
17
#5775000
1!
1>
07
0r
1k
1e
1s
0l
0f
1#!
1v
1q
0u
0p
0j
0o
0i
0d
1A
0@
0?
11
00
0/
0#!
0q
1j
0G
0-
1G
1-
1M
1O
1X
1T
0K
1C
13
#5800000
0!
0>
17
#5825000
1!
1>
07
0e
1f
1o
1i
1d
1?
1/
0j
#5850000
0!
0>
17
#5875000
1!
1>
07
0k
1e
1l
0f
1p
1j
0o
0i
0d
1@
0?
10
0/
0j
#5900000
0!
0>
17
#5925000
1!
1>
07
0e
1f
1u
1o
1i
1d
1?
1/
1#!
1w
1q
1j
0G
0-
1Y
0M
1Z
0O
1[
0T
1K
1D
0C
14
03
#5950000
0!
0>
17
#5975000
1!
1>
07
1x
1r
1k
1e
0z
0s
0l
0f
0#!
0w
0v
0q
0u
0p
0j
0o
0i
0d
0B
0A
0@
0?
02
01
00
0/
1w
1q
1j
1G
1-
#6000000
0!
0>
17
#6025000
1!
1>
07
0e
1f
1o
1i
1d
1?
1/
0j
#6050000
0!
0>
17
#6075000
1!
1>
07
0k
1e
1l
0f
1p
1j
0o
0i
0d
1@
0?
10
0/
0j
#6100000
0!
0>
17
#6125000
1!
1>
07
0e
1f
1u
1o
1i
1d
1?
1/
0q
1j
#6150000
0!
0>
17
#6175000
1!
1>
07
0r
1k
1e
1s
0l
0f
1v
1q
0u
0p
0j
0o
0i
0d
1A
0@
0?
11
00
0/
0q
1j
#6200000
0!
0>
17
#6225000
1!
1>
07
0e
1f
1o
1i
1d
1?
1/
0j
#6250000
0!
0>
17
#6275000
1!
1>
07
0k
1e
1l
0f
1p
1j
0o
0i
0d
1@
0?
10
0/
0j
#6300000
0!
0>
17
#6325000
1!
1>
07
0e
1f
1u
1o
1i
1d
1?
1/
0w
1q
1j
#6350000
0!
0>
17
#6375000
1!
1>
07
0x
1r
1k
1e
1z
0s
0l
0f
1w
0v
0q
0u
0p
0j
0o
0i
0d
1B
0A
0@
0?
12
01
00
0/
0w
1q
1j
#6400000
0!
0>
17
#6425000
1!
1>
07
0e
1f
1o
1i
1d
1?
1/
0j
#6450000
0!
0>
17
#6475000
1!
1>
07
0k
1e
1l
0f
1p
1j
0o
0i
0d
1@
0?
10
0/
0j
#6500000
0!
0>
17
#6525000
1!
1>
07
0e
1f
1u
1o
1i
1d
1?
1/
0q
1j
#6550000
0!
0>
17
#6575000
1!
1>
07
0r
1k
1e
1s
0l
0f
1#!
1v
1q
0u
0p
0j
0o
0i
0d
1A
0@
0?
11
00
0/
0#!
0q
1j
0G
0-
1G
1-
1M
1O
0X
1T
1Q
0K
1C
13
1\
#6600000
0!
0>
17
#6625000
1!
1>
07
0e
1f
1o
1i
1d
1?
1/
0j
#6650000
0!
0>
17
#6675000
1!
1>
07
0k
1e
1l
0f
1p
1j
0o
0i
0d
1@
0?
10
0/
0j
#6700000
0!
0>
17
#6725000
1!
1>
07
0e
1f
1u
1o
1i
1d
1?
1/
1#!
1w
1q
1j
0G
0-
1]
0Y
0M
1^
0Z
0O
1}
0\
0[
0Q
0T
1K
1E
0D
0C
15
04
03
1_
1\
1a
1H
1L
1.
0_
0a
0H
0L
0.
0^
0}
0\
0E
05
1^
1}
1\
1E
15
0]
0^
0}
0\
0E
05
#6750000
0!
0>
17
#6775000
1!
1>
07
1x
1r
1k
1e
0z
0s
0l
0f
0#!
0w
0v
0q
0u
0p
0j
0o
0i
0d
0B
0A
0@
0?
02
01
00
0/
1w
1q
1j
1G
1-
#6800000
0!
0>
17
#6825000
1!
1>
07
0e
1f
1o
1i
1d
1?
1/
0j
#6850000
0!
0>
17
#6875000
1!
1>
07
0k
1e
1l
0f
1p
1j
0o
0i
0d
1@
0?
10
0/
0j
#6900000
0!
0>
17
#6925000
1!
1>
07
0e
1f
1u
1o
1i
1d
1?
1/
0q
1j
#6950000
0!
0>
17
#6975000
1!
1>
07
0r
1k
1e
1s
0l
0f
1v
1q
0u
0p
0j
0o
0i
0d
1A
0@
0?
11
00
0/
0q
1j
#7000000
0!
0>
17
#7025000
1!
1>
07
0e
1f
1o
1i
1d
1?
1/
0j
#7050000
0!
0>
17
#7075000
1!
1>
07
0k
1e
1l
0f
1p
1j
0o
0i
0d
1@
0?
10
0/
0j
#7100000
0!
0>
17
#7125000
1!
1>
07
0e
1f
1u
1o
1i
1d
1?
1/
0w
1q
1j
#7150000
0!
0>
17
#7175000
1!
1>
07
0x
1r
1k
1e
1z
0s
0l
0f
1w
0v
0q
0u
0p
0j
0o
0i
0d
1B
0A
0@
0?
12
01
00
0/
0w
1q
1j
#7200000
0!
0>
17
#7225000
1!
1>
07
0e
1f
1o
1i
1d
1?
1/
0j
#7250000
0!
0>
17
#7275000
1!
1>
07
0k
1e
1l
0f
1p
1j
0o
0i
0d
1@
0?
10
0/
0j
#7300000
0!
0>
17
#7325000
1!
1>
07
0e
1f
1u
1o
1i
1d
1?
1/
0q
1j
#7350000
0!
0>
17
#7375000
1!
1>
07
0r
1k
1e
1s
0l
0f
1#!
1v
1q
0u
0p
0j
0o
0i
0d
1A
0@
0?
11
00
0/
0#!
0q
1j
0G
0-
1G
1-
1M
1O
1X
1T
0K
1C
13
#7400000
0!
0>
17
#7425000
1!
1>
07
0e
1f
1o
1i
1d
1?
1/
0j
#7450000
0!
0>
17
#7475000
1!
1>
07
0k
1e
1l
0f
1p
1j
0o
0i
0d
1@
0?
10
0/
0j
#7500000
0!
0>
17
#7525000
1!
1>
07
0e
1f
1u
1o
1i
1d
1?
1/
1#!
1w
1q
1j
0G
0-
1Y
0M
1Z
0O
1[
0T
1K
1D
0C
14
03
#7550000
0!
0>
17
#7575000
1!
1>
07
1x
1r
1k
1e
0z
0s
0l
0f
0#!
0w
0v
0q
0u
0p
0j
0o
0i
0d
0B
0A
0@
0?
02
01
00
0/
1w
1q
1j
1G
1-
#7600000
0!
0>
17
#7625000
1!
1>
07
0e
1f
1o
1i
1d
1?
1/
0j
#7650000
0!
0>
17
#7675000
1!
1>
07
0k
1e
1l
0f
1p
1j
0o
0i
0d
1@
0?
10
0/
0j
#7700000
0!
0>
17
#7725000
1!
1>
07
0e
1f
1u
1o
1i
1d
1?
1/
0q
1j
#7750000
0!
0>
17
#7775000
1!
1>
07
0r
1k
1e
1s
0l
0f
1v
1q
0u
0p
0j
0o
0i
0d
1A
0@
0?
11
00
0/
0q
1j
#7800000
0!
0>
17
#7825000
1!
1>
07
0e
1f
1o
1i
1d
1?
1/
0j
#7850000
0!
0>
17
#7875000
1!
1>
07
0k
1e
1l
0f
1p
1j
0o
0i
0d
1@
0?
10
0/
0j
#7900000
0!
0>
17
#7925000
1!
1>
07
0e
1f
1u
1o
1i
1d
1?
1/
0w
1q
1j
#7950000
0!
0>
17
#7975000
1!
1>
07
0x
1r
1k
1e
1z
0s
0l
0f
1w
0v
0q
0u
0p
0j
0o
0i
0d
1B
0A
0@
0?
12
01
00
0/
0w
1q
1j
#8000000
0!
0>
17
#8025000
1!
1>
07
0e
1f
1o
1i
1d
1?
1/
0j
#8050000
0!
0>
17
#8075000
1!
1>
07
0k
1e
1l
0f
1p
1j
0o
0i
0d
1@
0?
10
0/
0j
#8100000
0!
0>
17
#8125000
1!
1>
07
0e
1f
1u
1o
1i
1d
1?
1/
0q
1j
#8150000
0!
0>
17
