DLD Lab/Experiment#03/Code/FunctionGenerator/FunctionGenerator/simulation/qsim/WaveformGenerator.msim.vcd
$comment
	File created using the following command:
		vcd file WaveformGenerator.msim.vcd -direction
$end
$date
	Mon Aug 24 16:23:25 2020
$end
$version
	ModelSim Version 10.1d
$end
$timescale
	1ps
$end
$scope module WaveformGenerator_vlg_vec_tst $end
$var reg 1 ! clk $end
$var reg 1 " rst $end
$var reg 13 # SW [12:0] $end
$var wire 1 $ data_out [7] $end
$var wire 1 % data_out [6] $end
$var wire 1 & data_out [5] $end
$var wire 1 ' data_out [4] $end
$var wire 1 ( data_out [3] $end
$var wire 1 ) data_out [2] $end
$var wire 1 * data_out [1] $end
$var wire 1 + data_out [0] $end
$var wire 1 , sampler $end
$scope module i1 $end
$var wire 1 - gnd $end
$var wire 1 . vcc $end
$var wire 1 / unknown $end
$var tri1 1 0 devclrn $end
$var tri1 1 1 devpor $end
$var tri1 1 2 devoe $end
$var wire 1 3 inst|sw|sine[2]~4_combout $end
$var wire 1 4 inst|sw|sine[3]~6_combout $end
$var wire 1 5 inst|sw|sine[5]~10_combout $end
$var wire 1 6 inst|sw|sine[7]~14_combout $end
$var wire 1 7 inst|sw|sine[10]~20_combout $end
$var wire 1 8 inst|sw4|Add2~4_combout $end
$var wire 1 9 inst|sw4|Add2~13 $end
$var wire 1 : inst|sw4|Add2~14_combout $end
$var wire 1 ; inst|fw|Add3~8_combout $end
$var wire 1 < inst|fw|Add3~13 $end
$var wire 1 = inst|fw|Add3~14_combout $end
$var wire 1 > inst|sw4|Add3~16_combout $end
$var wire 1 ? inst|sw4|Add3~21 $end
$var wire 1 @ inst|sw4|Add3~22_combout $end
$var wire 1 A inst4|Add1~0_combout $end
$var wire 1 B inst4|Add1~6_combout $end
$var wire 1 C inst4|Add1~8_combout $end
$var wire 1 D inst4|Add1~10_combout $end
$var wire 1 E inst4|Add1~12_combout $end
$var wire 1 F inst|fw|pre_cosine[0]~16_combout $end
$var wire 1 G inst|fw|pre_cosine[3]~22_combout $end
$var wire 1 H inst|fw|pre_cosine[5]~26_combout $end
$var wire 1 I inst|fw|pre_cosine[6]~28_combout $end
$var wire 1 J inst|fw|pre_cosine[10]~36_combout $end
$var wire 1 K inst|rw|rhomboid_out[0]~9_combout $end
$var wire 1 L inst|rw|rhomboid_out[3]~15_combout $end
$var wire 1 M inst|rw|rhomboid_out[4]~17_combout $end
$var wire 1 N inst|rw|rhomboid_out[6]~22 $end
$var wire 1 O inst|rw|rhomboid_out[7]~23_combout $end
$var wire 1 P inst4|count[5]~18_combout $end
$var wire 1 Q inst|Mux0~0_combout $end
$var wire 1 R inst|Mux0~1_combout $end
$var wire 1 S inst|sw4|Add3~0_combout $end
$var wire 1 T inst|sw4|Add3~5_combout $end
$var wire 1 U inst|sw4|Add3~7_combout $end
$var wire 1 V inst|Mux0~2_combout $end
$var wire 1 W inst|Mux0~3_combout $end
$var wire 1 X inst|Mux3~0_combout $end
$var wire 1 Y inst|Mux3~1_combout $end
$var wire 1 Z inst|Mux3~2_combout $end
$var wire 1 [ inst|Mux3~3_combout $end
$var wire 1 \ inst|Mux7~0_combout $end
$var wire 1 ] inst|Mux7~1_combout $end
$var wire 1 ^ inst4|Equal1~2_combout $end
$var wire 1 _ inst6|Equal0~1_combout $end
$var wire 1 ` inst|tw|triangle_out~0_combout $end
$var wire 1 a inst|tw|triangle_out~3_combout $end
$var wire 1 b inst|rw|rhomboid_out~27_combout $end
$var wire 1 c inst|rw|rhomboid_out~28_combout $end
$var wire 1 d inst|tw|triangle_out~7_combout $end
$var wire 1 e inst|rw|rhomboid_out~31_combout $end
$var wire 1 f ~GND~combout $end
$var wire 1 g clk~combout $end
$var wire 1 h clk~clkctrl_outclk $end
$var wire 1 i inst5~combout $end
$var wire 1 j inst4|Add1~1 $end
$var wire 1 k inst4|Add1~3 $end
$var wire 1 l inst4|Add1~5 $end
$var wire 1 m inst4|Add1~7 $end
$var wire 1 n inst4|Add1~9 $end
$var wire 1 o inst4|Add1~11 $end
$var wire 1 p inst4|Add1~13 $end
$var wire 1 q inst4|Add1~15 $end
$var wire 1 r inst4|Add1~16_combout $end
$var wire 1 s inst4|Add1~4_combout $end
$var wire 1 t inst4|count[0]~9 $end
$var wire 1 u inst4|count[1]~11 $end
$var wire 1 v inst4|count[2]~12_combout $end
$var wire 1 w rst~combout $end
$var wire 1 x rst~clkctrl_outclk $end
$var wire 1 y inst4|Equal1~5_combout $end
$var wire 1 z inst4|count[2]~13 $end
$var wire 1 { inst4|count[3]~14_combout $end
$var wire 1 | inst4|Equal1~1_combout $end
$var wire 1 } inst4|Add1~2_combout $end
$var wire 1 ~ inst4|count[1]~10_combout $end
$var wire 1 !! inst4|count[0]~8_combout $end
$var wire 1 "! inst4|Equal1~0_combout $end
$var wire 1 #! inst4|count[3]~15 $end
$var wire 1 $! inst4|count[4]~16_combout $end
$var wire 1 %! inst4|count[4]~17 $end
$var wire 1 &! inst4|count[5]~19 $end
$var wire 1 '! inst4|count[6]~20_combout $end
$var wire 1 (! inst4|Add1~14_combout $end
$var wire 1 )! inst4|count[6]~21 $end
$var wire 1 *! inst4|count[7]~22_combout $end
$var wire 1 +! inst4|Equal1~3_combout $end
$var wire 1 ,! inst4|Equal1~4_combout $end
$var wire 1 -! inst4|clk_div~0_combout $end
$var wire 1 .! inst4|clk_div~regout $end
$var wire 1 /! inst4|clk_div~clkctrl_outclk $end
$var wire 1 0! inst6|counter_out[0]~10_combout $end
$var wire 1 1! inst6|counter_out[0]~11 $end
$var wire 1 2! inst6|counter_out[1]~13 $end
$var wire 1 3! inst6|counter_out[2]~15 $end
$var wire 1 4! inst6|counter_out[3]~16_combout $end
$var wire 1 5! inst6|counter_out[3]~17 $end
$var wire 1 6! inst6|counter_out[4]~19 $end
$var wire 1 7! inst6|counter_out[5]~20_combout $end
$var wire 1 8! inst6|counter_out[5]~21 $end
$var wire 1 9! inst6|counter_out[6]~23 $end
$var wire 1 :! inst6|counter_out[7]~24_combout $end
$var wire 1 ;! inst6|counter_out[7]~25 $end
$var wire 1 <! inst6|counter_out[8]~26_combout $end
$var wire 1 =! inst6|counter_out[8]~27 $end
$var wire 1 >! inst6|counter_out[9]~28_combout $end
$var wire 1 ?! inst6|Equal0~2_combout $end
$var wire 1 @! inst6|counter_out[1]~12_combout $end
$var wire 1 A! inst6|Equal0~0_combout $end
$var wire 1 B! inst6|always0~0_combout $end
$var wire 1 C! inst6|counter_out[2]~14_combout $end
$var wire 1 D! inst6|counter_out[4]~18_combout $end
$var wire 1 E! inst6|counter_out[6]~22_combout $end
$var wire 1 F! inst3|$00000|auto_generated|result_node[7]~0_combout $end
$var wire 1 G! inst8|data_out[7]~0_combout $end
$var wire 1 H! inst|wave_out[7]~0_combout $end
$var wire 1 I! inst|fw|pre_cosine[14]~44_combout $end
$var wire 1 J! inst|fw|pre_cosine[13]~42_combout $end
$var wire 1 K! inst|fw|pre_cosine[12]~40_combout $end
$var wire 1 L! inst|fw|pre_cosine[11]~38_combout $end
$var wire 1 M! inst|fw|pre_cosine[9]~34_combout $end
$var wire 1 N! inst|fw|pre_cosine[8]~32_combout $end
$var wire 1 O! inst|sw|sine[0]~0_combout $end
$var wire 1 P! inst|sw|sine[0]~1 $end
$var wire 1 Q! inst|sw|sine[1]~2_combout $end
$var wire 1 R! inst|sw|sine[1]~3 $end
$var wire 1 S! inst|sw|sine[2]~5 $end
$var wire 1 T! inst|sw|sine[3]~7 $end
$var wire 1 U! inst|sw|sine[4]~8_combout $end
$var wire 1 V! inst|sw|sine[4]~9 $end
$var wire 1 W! inst|sw|sine[5]~11 $end
$var wire 1 X! inst|sw|sine[6]~13 $end
$var wire 1 Y! inst|sw|sine[7]~15 $end
$var wire 1 Z! inst|sw|sine[8]~17 $end
$var wire 1 [! inst|sw|sine[9]~18_combout $end
$var wire 1 \! inst|sw|sine[9]~19 $end
$var wire 1 ]! inst|sw|sine[10]~21 $end
$var wire 1 ^! inst|sw|sine[11]~22_combout $end
$var wire 1 _! inst|sw|sine[11]~23 $end
$var wire 1 `! inst|sw|sine[12]~24_combout $end
$var wire 1 a! inst|sw|sine[6]~12_combout $end
$var wire 1 b! inst|fw|pre_cosine[0]~17 $end
$var wire 1 c! inst|fw|pre_cosine[1]~18_combout $end
$var wire 1 d! inst|fw|pre_cosine[1]~19 $end
$var wire 1 e! inst|fw|pre_cosine[2]~20_combout $end
$var wire 1 f! inst|fw|pre_cosine[2]~21 $end
$var wire 1 g! inst|fw|pre_cosine[3]~23 $end
$var wire 1 h! inst|fw|pre_cosine[4]~24_combout $end
$var wire 1 i! inst|fw|pre_cosine[4]~25 $end
$var wire 1 j! inst|fw|pre_cosine[5]~27 $end
$var wire 1 k! inst|fw|pre_cosine[6]~29 $end
$var wire 1 l! inst|fw|pre_cosine[7]~30_combout $end
$var wire 1 m! inst|fw|pre_cosine[7]~31 $end
$var wire 1 n! inst|fw|pre_cosine[8]~33 $end
$var wire 1 o! inst|fw|pre_cosine[9]~35 $end
$var wire 1 p! inst|fw|pre_cosine[10]~37 $end
$var wire 1 q! inst|fw|pre_cosine[11]~39 $end
$var wire 1 r! inst|fw|pre_cosine[12]~41 $end
$var wire 1 s! inst|fw|pre_cosine[13]~43 $end
$var wire 1 t! inst|fw|pre_cosine[14]~45 $end
$var wire 1 u! inst|fw|pre_cosine[15]~46_combout $end
$var wire 1 v! inst|sw|sine[12]~25 $end
$var wire 1 w! inst|sw|sine[13]~26_combout $end
$var wire 1 x! inst|sw|sine[13]~27 $end
$var wire 1 y! inst|sw|sine[14]~28_combout $end
$var wire 1 z! inst|sw|sine[14]~29 $end
$var wire 1 {! inst|sw|sine[15]~30_combout $end
$var wire 1 |! inst|wave_out[7]~2_combout $end
$var wire 1 }! inst|wave_out[7]~5_combout $end
$var wire 1 ~! inst|counter[0]~9 $end
$var wire 1 !" inst|counter[1]~10_combout $end
$var wire 1 "" inst|counter[2]~12_combout $end
$var wire 1 #" inst|Equal0~1_combout $end
$var wire 1 $" inst|counter[4]~16_combout $end
$var wire 1 %" inst|counter[6]~21 $end
$var wire 1 &" inst|counter[7]~22_combout $end
$var wire 1 '" inst|Equal0~0_combout $end
$var wire 1 (" inst|always0~0_combout $end
$var wire 1 )" inst|counter[1]~11 $end
$var wire 1 *" inst|counter[2]~13 $end
$var wire 1 +" inst|counter[3]~14_combout $end
$var wire 1 ," inst|counter[3]~15 $end
$var wire 1 -" inst|counter[4]~17 $end
$var wire 1 ." inst|counter[5]~18_combout $end
$var wire 1 /" inst|counter[5]~19 $end
$var wire 1 0" inst|counter[6]~20_combout $end
$var wire 1 1" inst|sw4|toggle~0_combout $end
$var wire 1 2" inst|sw4|toggle~regout $end
$var wire 1 3" inst|rw|rhomboid_out[2]~8_combout $end
$var wire 1 4" inst|counter[0]~8_combout $end
$var wire 1 5" inst|rw|rhomboid_out[0]~10 $end
$var wire 1 6" inst|rw|rhomboid_out[1]~12 $end
$var wire 1 7" inst|rw|rhomboid_out[2]~14 $end
$var wire 1 8" inst|rw|rhomboid_out[3]~16 $end
$var wire 1 9" inst|rw|rhomboid_out[4]~18 $end
$var wire 1 :" inst|rw|rhomboid_out[5]~20 $end
$var wire 1 ;" inst|rw|rhomboid_out[6]~21_combout $end
$var wire 1 <" inst|rw|rhomboid_out~25_combout $end
$var wire 1 =" inst|tw|triangle_out~1_combout $end
$var wire 1 >" inst|wave_out[7]~4_combout $end
$var wire 1 ?" inst|Mux1~0_combout $end
$var wire 1 @" inst|wave_out[7]~1_combout $end
$var wire 1 A" inst|sw|sine[8]~16_combout $end
$var wire 1 B" inst|sw4|Add2~1 $end
$var wire 1 C" inst|sw4|Add2~3 $end
$var wire 1 D" inst|sw4|Add2~5 $end
$var wire 1 E" inst|sw4|Add2~7 $end
$var wire 1 F" inst|sw4|Add2~9 $end
$var wire 1 G" inst|sw4|Add2~11 $end
$var wire 1 H" inst|sw4|Add2~12_combout $end
$var wire 1 I" inst|sw4|Add2~10_combout $end
$var wire 1 J" inst|sw4|Add2~6_combout $end
$var wire 1 K" inst|sw4|Add2~2_combout $end
$var wire 1 L" inst|fw|Add3~1_cout $end
$var wire 1 M" inst|fw|Add3~3 $end
$var wire 1 N" inst|fw|Add3~5 $end
$var wire 1 O" inst|fw|Add3~7 $end
$var wire 1 P" inst|fw|Add3~9 $end
$var wire 1 Q" inst|fw|Add3~11 $end
$var wire 1 R" inst|fw|Add3~12_combout $end
$var wire 1 S" inst|Mux1~1_combout $end
$var wire 1 T" inst|wave_out[7]~3_combout $end
$var wire 1 U" inst|sw4|Add3~1_combout $end
$var wire 1 V" inst|sw4|Add3~2_combout $end
$var wire 1 W" inst|sw4|Add2~8_combout $end
$var wire 1 X" inst|sw4|Add3~3_combout $end
$var wire 1 Y" inst|sw4|Add3~4_combout $end
$var wire 1 Z" inst|sw4|Add3~6_combout $end
$var wire 1 [" inst|sw4|Add3~9 $end
$var wire 1 \" inst|sw4|Add3~11 $end
$var wire 1 ]" inst|sw4|Add3~13 $end
$var wire 1 ^" inst|sw4|Add3~15 $end
$var wire 1 _" inst|sw4|Add3~17 $end
$var wire 1 `" inst|sw4|Add3~19 $end
$var wire 1 a" inst|sw4|Add3~20_combout $end
$var wire 1 b" inst|Mux1~2_combout $end
$var wire 1 c" inst|Mux1~3_combout $end
$var wire 1 d" inst3|$00000|auto_generated|result_node[6]~1_combout $end
$var wire 1 e" inst8|Mux0~0_combout $end
$var wire 1 f" inst|sw4|Add3~18_combout $end
$var wire 1 g" inst|rw|rhomboid_out[5]~19_combout $end
$var wire 1 h" inst|rw|rhomboid_out~26_combout $end
$var wire 1 i" inst|Mux2~0_combout $end
$var wire 1 j" inst|tw|triangle_out~2_combout $end
$var wire 1 k" inst|fw|Add3~10_combout $end
$var wire 1 l" inst|Mux2~1_combout $end
$var wire 1 m" inst|Mux2~2_combout $end
$var wire 1 n" inst|Mux2~3_combout $end
$var wire 1 o" inst8|Mux0~1_combout $end
$var wire 1 p" inst8|Mux0~2_combout $end
$var wire 1 q" inst8|Mux1~0_combout $end
$var wire 1 r" inst8|Mux0~3_combout $end
$var wire 1 s" inst8|Mux0~4_combout $end
$var wire 1 t" inst8|Mux2~0_combout $end
$var wire 1 u" inst|sw2|always0~0_combout $end
$var wire 1 v" inst|sw4|Add3~14_combout $end
$var wire 1 w" inst|tw|triangle_out~4_combout $end
$var wire 1 x" inst|Mux4~0_combout $end
$var wire 1 y" inst|fw|Add3~6_combout $end
$var wire 1 z" inst|Mux4~1_combout $end
$var wire 1 {" inst|Mux4~2_combout $end
$var wire 1 |" inst|Mux4~3_combout $end
$var wire 1 }" inst8|Mux0~5_combout $end
$var wire 1 ~" inst8|Mux0~6_combout $end
$var wire 1 !# inst8|Mux3~0_combout $end
$var wire 1 "# inst8|Mux0~7_combout $end
$var wire 1 ## inst8|Mux0~8_combout $end
$var wire 1 $# inst8|Mux4~0_combout $end
$var wire 1 %# inst|sw4|Add3~10_combout $end
$var wire 1 &# inst|rw|rhomboid_out[1]~11_combout $end
$var wire 1 '# inst|rw|rhomboid_out~30_combout $end
$var wire 1 (# inst|Mux6~0_combout $end
$var wire 1 )# inst|tw|triangle_out~6_combout $end
$var wire 1 *# inst|fw|Add3~2_combout $end
$var wire 1 +# inst|Mux6~1_combout $end
$var wire 1 ,# inst|Mux6~2_combout $end
$var wire 1 -# inst|Mux6~3_combout $end
$var wire 1 .# inst8|Mux0~9_combout $end
$var wire 1 /# inst8|Mux0~10_combout $end
$var wire 1 0# inst8|Mux5~0_combout $end
$var wire 1 1# inst8|Mux6~0_combout $end
$var wire 1 2# inst|sw4|Add2~0_combout $end
$var wire 1 3# inst|sw4|Add3~8_combout $end
$var wire 1 4# inst|Mux7~2_combout $end
$var wire 1 5# inst|Mux7~3_combout $end
$var wire 1 6# inst|rw|rhomboid_out[2]~13_combout $end
$var wire 1 7# inst|rw|rhomboid_out~29_combout $end
$var wire 1 8# inst|tw|triangle_out~5_combout $end
$var wire 1 9# inst|Mux5~0_combout $end
$var wire 1 :# inst|fw|Add3~4_combout $end
$var wire 1 ;# inst|Mux5~1_combout $end
$var wire 1 <# inst|sw4|Add3~12_combout $end
$var wire 1 =# inst|Mux5~2_combout $end
$var wire 1 ># inst|Mux5~3_combout $end
$var wire 1 ?# inst8|Mux6~1_combout $end
$var wire 1 @# inst8|Mux6~2_combout $end
$var wire 1 A# inst|wave_out [7] $end
$var wire 1 B# inst|wave_out [6] $end
$var wire 1 C# inst|wave_out [5] $end
$var wire 1 D# inst|wave_out [4] $end
$var wire 1 E# inst|wave_out [3] $end
$var wire 1 F# inst|wave_out [2] $end
$var wire 1 G# inst|wave_out [1] $end
$var wire 1 H# inst|wave_out [0] $end
$var wire 1 I# inst|counter [7] $end
$var wire 1 J# inst|counter [6] $end
$var wire 1 K# inst|counter [5] $end
$var wire 1 L# inst|counter [4] $end
$var wire 1 M# inst|counter [3] $end
$var wire 1 N# inst|counter [2] $end
$var wire 1 O# inst|counter [1] $end
$var wire 1 P# inst|counter [0] $end
$var wire 1 Q# inst|rw|rhomboid_out [7] $end
$var wire 1 R# inst|rw|rhomboid_out [6] $end
$var wire 1 S# inst|rw|rhomboid_out [5] $end
$var wire 1 T# inst|rw|rhomboid_out [4] $end
$var wire 1 U# inst|rw|rhomboid_out [3] $end
$var wire 1 V# inst|rw|rhomboid_out [2] $end
$var wire 1 W# inst|rw|rhomboid_out [1] $end
$var wire 1 X# inst|rw|rhomboid_out [0] $end
$var wire 1 Y# inst|sw2|square_out [7] $end
$var wire 1 Z# inst|sw2|square_out [6] $end
$var wire 1 [# inst|sw2|square_out [5] $end
$var wire 1 \# inst|sw2|square_out [4] $end
$var wire 1 ]# inst|sw2|square_out [3] $end
$var wire 1 ^# inst|sw2|square_out [2] $end
$var wire 1 _# inst|sw2|square_out [1] $end
$var wire 1 `# inst|sw2|square_out [0] $end
$var wire 1 a# inst|tw|triangle_out [7] $end
$var wire 1 b# inst|tw|triangle_out [6] $end
$var wire 1 c# inst|tw|triangle_out [5] $end
$var wire 1 d# inst|tw|triangle_out [4] $end
$var wire 1 e# inst|tw|triangle_out [3] $end
$var wire 1 f# inst|tw|triangle_out [2] $end
$var wire 1 g# inst|tw|triangle_out [1] $end
$var wire 1 h# inst|tw|triangle_out [0] $end
$var wire 1 i# inst|fw|pre_sine [15] $end
$var wire 1 j# inst|fw|pre_sine [14] $end
$var wire 1 k# inst|fw|pre_sine [13] $end
$var wire 1 l# inst|fw|pre_sine [12] $end
$var wire 1 m# inst|fw|pre_sine [11] $end
$var wire 1 n# inst|fw|pre_sine [10] $end
$var wire 1 o# inst|fw|pre_sine [9] $end
$var wire 1 p# inst|fw|pre_sine [8] $end
$var wire 1 q# inst|fw|pre_sine [7] $end
$var wire 1 r# inst|fw|pre_sine [6] $end
$var wire 1 s# inst|fw|pre_sine [5] $end
$var wire 1 t# inst|fw|pre_sine [4] $end
$var wire 1 u# inst|fw|pre_sine [3] $end
$var wire 1 v# inst|fw|pre_sine [2] $end
$var wire 1 w# inst|fw|pre_sine [1] $end
$var wire 1 x# inst|fw|pre_sine [0] $end
$var wire 1 y# inst|fw|pre_cosine [15] $end
$var wire 1 z# inst|fw|pre_cosine [14] $end
$var wire 1 {# inst|fw|pre_cosine [13] $end
$var wire 1 |# inst|fw|pre_cosine [12] $end
$var wire 1 }# inst|fw|pre_cosine [11] $end
$var wire 1 ~# inst|fw|pre_cosine [10] $end
$var wire 1 !$ inst|fw|pre_cosine [9] $end
$var wire 1 "$ inst|fw|pre_cosine [8] $end
$var wire 1 #$ inst|fw|pre_cosine [7] $end
$var wire 1 $$ inst|fw|pre_cosine [6] $end
$var wire 1 %$ inst|fw|pre_cosine [5] $end
$var wire 1 &$ inst|fw|pre_cosine [4] $end
$var wire 1 '$ inst|fw|pre_cosine [3] $end
$var wire 1 ($ inst|fw|pre_cosine [2] $end
$var wire 1 )$ inst|fw|pre_cosine [1] $end
$var wire 1 *$ inst|fw|pre_cosine [0] $end
$var wire 1 +$ inst4|count [7] $end
$var wire 1 ,$ inst4|count [6] $end
$var wire 1 -$ inst4|count [5] $end
$var wire 1 .$ inst4|count [4] $end
$var wire 1 /$ inst4|count [3] $end
$var wire 1 0$ inst4|count [2] $end
$var wire 1 1$ inst4|count [1] $end
$var wire 1 2$ inst4|count [0] $end
$var wire 1 3$ inst7|altsyncram_component|auto_generated|q_a [7] $end
$var wire 1 4$ inst7|altsyncram_component|auto_generated|q_a [6] $end
$var wire 1 5$ inst7|altsyncram_component|auto_generated|q_a [5] $end
$var wire 1 6$ inst7|altsyncram_component|auto_generated|q_a [4] $end
$var wire 1 7$ inst7|altsyncram_component|auto_generated|q_a [3] $end
$var wire 1 8$ inst7|altsyncram_component|auto_generated|q_a [2] $end
$var wire 1 9$ inst7|altsyncram_component|auto_generated|q_a [1] $end
$var wire 1 :$ inst7|altsyncram_component|auto_generated|q_a [0] $end
$var wire 1 ;$ inst6|counter_out [9] $end
$var wire 1 <$ inst6|counter_out [8] $end
$var wire 1 =$ inst6|counter_out [7] $end
$var wire 1 >$ inst6|counter_out [6] $end
$var wire 1 ?$ inst6|counter_out [5] $end
$var wire 1 @$ inst6|counter_out [4] $end
$var wire 1 A$ inst6|counter_out [3] $end
$var wire 1 B$ inst6|counter_out [2] $end
$var wire 1 C$ inst6|counter_out [1] $end
$var wire 1 D$ inst6|counter_out [0] $end
$var wire 1 E$ SW~combout [12] $end
$var wire 1 F$ SW~combout [11] $end
$var wire 1 G$ SW~combout [10] $end
$var wire 1 H$ SW~combout [9] $end
$var wire 1 I$ SW~combout [8] $end
$var wire 1 J$ SW~combout [7] $end
$var wire 1 K$ SW~combout [6] $end
$var wire 1 L$ SW~combout [5] $end
$var wire 1 M$ SW~combout [4] $end
$var wire 1 N$ SW~combout [3] $end
$var wire 1 O$ SW~combout [2] $end
$var wire 1 P$ SW~combout [1] $end
$var wire 1 Q$ SW~combout [0] $end
$var wire 1 R$ inst7|altsyncram_component|auto_generated|ram_block1a4_PORTADATAOUT_bus [3] $end
$var wire 1 S$ inst7|altsyncram_component|auto_generated|ram_block1a4_PORTADATAOUT_bus [2] $end
$var wire 1 T$ inst7|altsyncram_component|auto_generated|ram_block1a4_PORTADATAOUT_bus [1] $end
$var wire 1 U$ inst7|altsyncram_component|auto_generated|ram_block1a4_PORTADATAOUT_bus [0] $end
$var wire 1 V$ inst7|altsyncram_component|auto_generated|ram_block1a0_PORTADATAOUT_bus [3] $end
$var wire 1 W$ inst7|altsyncram_component|auto_generated|ram_block1a0_PORTADATAOUT_bus [2] $end
$var wire 1 X$ inst7|altsyncram_component|auto_generated|ram_block1a0_PORTADATAOUT_bus [1] $end
$var wire 1 Y$ inst7|altsyncram_component|auto_generated|ram_block1a0_PORTADATAOUT_bus [0] $end
$upscope $end
$upscope $end
$enddefinitions $end
#0
$dumpvars
0!
1"
b101000110010 #
0+
0*
0)
0(
0'
0&
0%
0$
x,
0-
1.
x/
10
11
12
13
04
05
16
07
08
19
0:
0;
1<
1=
0>
0?
0@
0A
1B
1C
0D
0E
1F
1G
0H
0I
0J
0K
0L
0M
1N
0O
0P
0Q
0R
0S
0T
1U
1V
0W
0X
0Y
1Z
0[
0\
0]
0^
0_
0`
0a
0b
0c
0d
0e
0f
0g
0h
0i
1j
0k
1l
0m
1n
0o
1p
0q
1r
0s
0t
1u
0v
1w
1x
0y
0z
0{
0|
0}
0~
1!!
1"!
1#!
0$!
0%!
1&!
0'!
0(!
0)!
0*!
1+!
0,!
0-!
0.!
0/!
10!
01!
12!
03!
04!
15!
06!
07!
18!
09!
0:!
1;!
0<!
0=!
0>!
0?!
0@!
0A!
1B!
0C!
0D!
0E!
0F!
0G!
0H!
0I!
0J!
0K!
0L!
0M!
0N!
0O!
0P!
0Q!
1R!
0S!
1T!
1U!
0V!
1W!
0X!
1Y!
0Z!
0[!
1\!
0]!
0^!
1_!
0`!
1a!
0b!
0c!
1d!
0e!
0f!
1g!
1h!
1i!
0j!
1k!
0l!
0m!
1n!
0o!
1p!
0q!
1r!
0s!
1t!
0u!
0v!
0w!
1x!
0y!
0z!
0{!
0|!
1}!
0~!
0!"
0""
0#"
0$"
0%"
0&"
0'"
1("
1)"
0*"
0+"
1,"
0-"
0."
1/"
00"
11"
02"
03"
14"
15"
06"
17"
08"
19"
0:"
0;"
0<"
0="
1>"
0?"
0@"
1A"
1B"
0C"
1D"
0E"
1F"
0G"
0H"
0I"
0J"
0K"
1L"
0M"
1N"
0O"
1P"
0Q"
0R"
0S"
1T"
0U"
0V"
0W"
0X"
0Y"
0Z"
1["
1\"
0]"
1^"
0_"
1`"
0a"
1b"
0c"
0d"
0e"
0f"
0g"
0h"
0i"
0j"
0k"
0l"
1m"
0n"
0o"
0p"
0q"
0r"
0s"
0t"
0u"
0v"
0w"
0x"
0y"
0z"
1{"
0|"
0}"
0~"
0!#
0"#
0##
0$#
1%#
0&#
0'#
0(#
0)#
0*#
0+#
1,#
0-#
0.#
0/#
00#
01#
02#
03#
14#
05#
06#
07#
08#
09#
0:#
0;#
0<#
1=#
0>#
0?#
0@#
0H#
0G#
0F#
0E#
0D#
0C#
0B#
0A#
0P#
0O#
0N#
0M#
0L#
0K#
0J#
0I#
0X#
0W#
0V#
0U#
0T#
0S#
0R#
0Q#
0`#
z_#
z^#
z]#
z\#
z[#
zZ#
zY#
0h#
0g#
0f#
0e#
0d#
0c#
0b#
0a#
0x#
0w#
0v#
0u#
0t#
0s#
0r#
0q#
0p#
0o#
0n#
0m#
0l#
0k#
0j#
0i#
0*$
0)$
0($
0'$
0&$
0%$
0$$
0#$
0"$
0!$
0~#
0}#
0|#
0{#
0z#
0y#
02$
01$
00$
0/$
0.$
0-$
0,$
0+$
0:$
09$
08$
07$
06$
05$
04$
03$
0D$
0C$
0B$
0A$
0@$
0?$
0>$
0=$
0<$
0;$
zQ$
1P$
0O$
0N$
1M$
1L$
0K$
0J$
0I$
1H$
0G$
1F$
0E$
0U$
0T$
0S$
0R$
0Y$
0X$
0W$
0V$
$end
#2500
1!
1g
1h
0,
#5000
0!
0g
0h
1,
#7500
1!
1g
1h
0,
#10000
0!
0g
0h
1,
#12500
1!
1g
1h
0,
#15000
0!
0g
0h
1,
#17500
1!
1g
1h
0,
#20000
0!
0g
0h
1,
#22500
1!
1g
1h
0,
#24000
0"
0w
0x
1,
1u"
0("
0B!
#25000
0!
0g
0h
0,
#27500
1!
1g
1h
1,
12$
0"!
1t
0!!
1~
#30000
0!
0g
0h
0,
#32500
1!
1g
1h
1,
02$
11$
0t
1!!
0u
0~
1u
1~
1v
0v
#35000
0!
0g
0h
0,
#37500
1!
1g
1h
1,
12$
1t
0!!
0u
0~
1v
#40000
0!
0g
0h
0,
#42500
1!
1g
1h
1,
02$
01$
10$
1"!
0t
1!!
1u
1~
1z
0v
0~
0z
1v
1{
0{
#45000
0!
0g
0h
0,
#47500
1!
1g
1h
1,
12$
0"!
1t
0!!
1~
#50000
0!
0g
0h
0,
#52500
1!
1g
1h
1,
02$
11$
0t
1!!
0u
0~
1u
1~
1z
0v
0z
1v
1{
0{
#55000
0!
0g
0h
0,
#57500
1!
1g
1h
1,
12$
1t
0!!
0u
0~
1z
0v
1{
#60000
0!
0g
0h
0,
#62500
1!
1g
1h
1,
02$
01$
1/$
00$
1"!
0t
1!!
1u
1~
1|
0#!
0{
0z
1v
0~
0v
1$!
1#!
1{
0$!
#65000
0!
0g
0h
0,
#67500
1!
1g
1h
1,
12$
0"!
1t
0!!
1~
#70000
0!
0g
0h
0,
#72500
1!
1g
1h
1,
02$
11$
0t
1!!
0u
0~
1u
1~
1v
0v
#75000
0!
0g
0h
0,
#77500
1!
1g
1h
1,
12$
1t
0!!
0u
0~
1v
#80000
0!
0g
0h
0,
#82500
1!
1g
1h
1,
02$
01$
10$
1"!
0t
1!!
1u
1~
0|
1z
0v
0~
0z
1v
0#!
0{
1#!
1{
1$!
0$!
#85000
0!
0g
0h
0,
#87500
1!
1g
1h
1,
12$
0"!
1t
0!!
1~
#90000
0!
0g
0h
0,
#92500
1!
1g
1h
1,
02$
11$
0t
1!!
0u
0~
1u
1~
1z
0v
0z
1v
0#!
0{
1#!
1{
1$!
0$!
#95000
0!
0g
0h
0,
#97500
1!
1g
1h
1,
12$
1t
0!!
0u
0~
1z
0v
0#!
0{
1$!
#100000
0!
0g
0h
0,
#102500
1!
1g
1h
1,
1.$
02$
01$
0/$
00$
1%!
0$!
1^
1"!
0t
1!!
1u
1~
1#!
1{
0z
1v
1P
0~
0v
0%!
1$!
0{
0P
#105000
0!
0g
0h
0,
#107500
1!
1g
1h
1,
12$
0"!
1t
0!!
1~
#110000
0!
0g
0h
0,
#112500
1!
1g
1h
1,
02$
11$
0t
1!!
0u
0~
1u
1~
1v
0v
#115000
0!
0g
0h
0,
#117500
1!
1g
1h
1,
12$
1t
0!!
0u
0~
1v
#120000
0!
0g
0h
0,
#122500
1!
1g
1h
1,
02$
01$
10$
1"!
0t
1!!
1u
1~
1z
0v
0~
0z
1v
1{
0{
#125000
0!
0g
0h
0,
#127500
1!
1g
1h
1,
12$
0"!
1t
0!!
1~
#130000
0!
0g
0h
0,
#132500
1!
1g
1h
1,
02$
11$
0t
1!!
0u
0~
1u
1~
1z
0v
0z
1v
1{
0{
#135000
0!
0g
0h
0,
#137500
1!
1g
1h
1,
12$
1t
0!!
0u
0~
1z
0v
1{
#140000
0!
0g
0h
0,
#142500
1!
1g
1h
1,
02$
01$
1/$
00$
1"!
0t
1!!
1u
1~
1|
0#!
0{
0z
1v
1,!
0~
0v
1%!
0$!
1#!
1{
1-!
1y
1P
0%!
1$!
0P
#145000
0!
0g
0h
0,
